NAME GBP_INSTANCES/prob_2_B_0_1_9
COMMENT
BINTYPES 5
ITEMS 25
BINS_SECTIONS
0 60 60 26 0 26
1 80 80 19 0 19
2 100 100 16 0 16
3 120 120 13 0 13
4 150 150 11 0 11
CONTAINERS_SECTIONS
0 60 60 0 1 0
1 60 60 0 1 0
2 60 60 0 1 0
3 60 60 0 1 0
4 60 60 0 1 0
5 60 60 0 1 0
6 60 60 0 1 0
7 60 60 0 1 0
8 60 60 0 1 0
9 60 60 0 1 0
10 60 60 0 1 0
11 60 60 0 1 0
12 60 60 0 1 0
13 60 60 0 1 0
14 60 60 0 1 0
15 60 60 0 1 0
16 60 60 0 1 0
17 60 60 0 1 0
18 60 60 0 1 0
19 60 60 0 1 0
20 60 60 0 1 0
21 60 60 0 1 0
22 60 60 0 1 0
23 60 60 0 1 0
24 60 60 0 1 0
25 60 60 0 1 0
26 80 80 0 1 0
27 80 80 0 1 0
28 80 80 0 1 0
29 80 80 0 1 0
30 80 80 0 1 0
31 80 80 0 1 0
32 80 80 0 1 0
33 80 80 0 1 0
34 80 80 0 1 0
35 80 80 0 1 0
36 80 80 0 1 0
37 80 80 0 1 0
38 80 80 0 1 0
39 80 80 0 1 0
40 80 80 0 1 0
41 80 80 0 1 0
42 80 80 0 1 0
43 80 80 0 1 0
44 80 80 0 1 0
45 100 100 0 1 0
46 100 100 0 1 0
47 100 100 0 1 0
48 100 100 0 1 0
49 100 100 0 1 0
50 100 100 0 1 0
51 100 100 0 1 0
52 100 100 0 1 0
53 100 100 0 1 0
54 100 100 0 1 0
55 100 100 0 1 0
56 100 100 0 1 0
57 100 100 0 1 0
58 100 100 0 1 0
59 100 100 0 1 0
60 100 100 0 1 0
61 120 120 0 1 0
62 120 120 0 1 0
63 120 120 0 1 0
64 120 120 0 1 0
65 120 120 0 1 0
66 120 120 0 1 0
67 120 120 0 1 0
68 120 120 0 1 0
69 120 120 0 1 0
70 120 120 0 1 0
71 120 120 0 1 0
72 120 120 0 1 0
73 120 120 0 1 0
74 150 150 0 1 0
75 150 150 0 1 0
76 150 150 0 1 0
77 150 150 0 1 0
78 150 150 0 1 0
79 150 150 0 1 0
80 150 150 0 1 0
81 150 150 0 1 0
82 150 150 0 1 0
83 150 150 0 1 0
84 150 150 0 1 0
ITEMS_SECTIONS
0 26 63 63 63 63 63 63 63 63 63 63 63 63 63 63 63 63 63 63 63 63 63 63 63 63 63 63 53 53 53 53 53 53 53 53 53 53 53 53 53 53 53 53 53 53 53 51 51 51 51 51 51 51 51 51 51 51 51 51 51 51 51 50 50 50 50 50 50 50 50 50 50 50 50 50 51 51 51 51 51 51 51 51 51 51 51 0
1 63 68 68 68 68 68 68 68 68 68 68 68 68 68 68 68 68 68 68 68 68 68 68 68 68 68 68 59 59 59 59 59 59 59 59 59 59 59 59 59 59 59 59 59 59 59 57 57 57 57 57 57 57 57 57 57 57 57 57 57 57 57 58 58 58 58 58 58 58 58 58 58 58 58 58 60 60 60 60 60 60 60 60 60 60 60 0
2 83 75 75 75 75 75 75 75 75 75 75 75 75 75 75 75 75 75 75 75 75 75 75 75 75 75 75 68 68 68 68 68 68 68 68 68 68 68 68 68 68 68 68 68 68 68 67 67 67 67 67 67 67 67 67 67 67 67 67 67 67 67 69 69 69 69 69 69 69 69 69 69 69 69 69 73 73 73 73 73 73 73 73 73 73 73 0
3 76 70 70 70 70 70 70 70 70 70 70 70 70 70 70 70 70 70 70 70 70 70 70 70 70 70 70 61 61 61 61 61 61 61 61 61 61 61 61 61 61 61 61 61 61 61 59 59 59 59 59 59 59 59 59 59 59 59 59 59 59 59 60 60 60 60 60 60 60 60 60 60 60 60 60 62 62 62 62 62 62 62 62 62 62 62 0
4 23 58 58 58 58 58 58 58 58 58 58 58 58 58 58 58 58 58 58 58 58 58 58 58 58 58 58 47 47 47 47 47 47 47 47 47 47 47 47 47 47 47 47 47 47 47 43 43 43 43 43 43 43 43 43 43 43 43 43 43 43 43 41 41 41 41 41 41 41 41 41 41 41 41 41 40 40 40 40 40 40 40 40 40 40 40 0
5 72 59 59 59 59 59 59 59 59 59 59 59 59 59 59 59 59 59 59 59 59 59 59 59 59 59 59 48 48 48 48 48 48 48 48 48 48 48 48 48 48 48 48 48 48 48 45 45 45 45 45 45 45 45 45 45 45 45 45 45 45 45 43 43 43 43 43 43 43 43 43 43 43 43 43 43 43 43 43 43 43 43 43 43 43 43 0
6 25 54 54 54 54 54 54 54 54 54 54 54 54 54 54 54 54 54 54 54 54 54 54 54 54 54 54 43 43 43 43 43 43 43 43 43 43 43 43 43 43 43 43 43 43 43 38 38 38 38 38 38 38 38 38 38 38 38 38 38 38 38 36 36 36 36 36 36 36 36 36 36 36 36 36 34 34 34 34 34 34 34 34 34 34 34 0
7 41 74 74 74 74 74 74 74 74 74 74 74 74 74 74 74 74 74 74 74 74 74 74 74 74 74 74 67 67 67 67 67 67 67 67 67 67 67 67 67 67 67 67 67 67 67 66 66 66 66 66 66 66 66 66 66 66 66 66 66 66 66 67 67 67 67 67 67 67 67 67 67 67 67 67 71 71 71 71 71 71 71 71 71 71 71 0
8 81 60 60 60 60 60 60 60 60 60 60 60 60 60 60 60 60 60 60 60 60 60 60 60 60 60 60 50 50 50 50 50 50 50 50 50 50 50 50 50 50 50 50 50 50 50 47 47 47 47 47 47 47 47 47 47 47 47 47 47 47 47 45 45 45 45 45 45 45 45 45 45 45 45 45 45 45 45 45 45 45 45 45 45 45 45 0
9 71 92 92 92 92 92 92 92 92 92 92 92 92 92 92 92 92 92 92 92 92 92 92 92 92 92 92 88 88 88 88 88 88 88 88 88 88 88 88 88 88 88 88 88 88 88 90 90 90 90 90 90 90 90 90 90 90 90 90 90 90 90 95 95 95 95 95 95 95 95 95 95 95 95 95 104 104 104 104 104 104 104 104 104 104 104 0
10 88 103 103 103 103 103 103 103 103 103 103 103 103 103 103 103 103 103 103 103 103 103 103 103 103 103 103 101 101 101 101 101 101 101 101 101 101 101 101 101 101 101 101 101 101 101 106 106 106 106 106 106 106 106 106 106 106 106 106 106 106 106 113 113 113 113 113 113 113 113 113 113 113 113 113 125 125 125 125 125 125 125 125 125 125 125 0
11 90 96 96 96 96 96 96 96 96 96 96 96 96 96 96 96 96 96 96 96 96 96 96 96 96 96 96 93 93 93 93 93 93 93 93 93 93 93 93 93 93 93 93 93 93 93 96 96 96 96 96 96 96 96 96 96 96 96 96 96 96 96 102 102 102 102 102 102 102 102 102 102 102 102 102 112 112 112 112 112 112 112 112 112 112 112 0
12 59 74 74 74 74 74 74 74 74 74 74 74 74 74 74 74 74 74 74 74 74 74 74 74 74 74 74 67 67 67 67 67 67 67 67 67 67 67 67 67 67 67 67 67 67 67 66 66 66 66 66 66 66 66 66 66 66 66 66 66 66 66 67 67 67 67 67 67 67 67 67 67 67 67 67 71 71 71 71 71 71 71 71 71 71 71 0
13 95 104 104 104 104 104 104 104 104 104 104 104 104 104 104 104 104 104 104 104 104 104 104 104 104 104 104 102 102 102 102 102 102 102 102 102 102 102 102 102 102 102 102 102 102 102 107 107 107 107 107 107 107 107 107 107 107 107 107 107 107 107 114 114 114 114 114 114 114 114 114 114 114 114 114 126 126 126 126 126 126 126 126 126 126 126 0
14 92 86 86 86 86 86 86 86 86 86 86 86 86 86 86 86 86 86 86 86 86 86 86 86 86 86 86 81 81 81 81 81 81 81 81 81 81 81 81 81 81 81 81 81 81 81 83 83 83 83 83 83 83 83 83 83 83 83 83 83 83 83 86 86 86 86 86 86 86 86 86 86 86 86 86 94 94 94 94 94 94 94 94 94 94 94 0
15 22 53 53 53 53 53 53 53 53 53 53 53 53 53 53 53 53 53 53 53 53 53 53 53 53 53 53 41 41 41 41 41 41 41 41 41 41 41 41 41 41 41 41 41 41 41 36 36 36 36 36 36 36 36 36 36 36 36 36 36 36 36 33 33 33 33 33 33 33 33 33 33 33 33 33 31 31 31 31 31 31 31 31 31 31 31 0
16 88 77 77 77 77 77 77 77 77 77 77 77 77 77 77 77 77 77 77 77 77 77 77 77 77 77 77 70 70 70 70 70 70 70 70 70 70 70 70 70 70 70 70 70 70 70 70 70 70 70 70 70 70 70 70 70 70 70 70 70 70 70 72 72 72 72 72 72 72 72 72 72 72 72 72 77 77 77 77 77 77 77 77 77 77 77 0
17 45 63 63 63 63 63 63 63 63 63 63 63 63 63 63 63 63 63 63 63 63 63 63 63 63 63 63 53 53 53 53 53 53 53 53 53 53 53 53 53 53 53 53 53 53 53 50 50 50 50 50 50 50 50 50 50 50 50 50 50 50 50 49 49 49 49 49 49 49 49 49 49 49 49 49 49 49 49 49 49 49 49 49 49 49 49 0
18 82 72 72 72 72 72 72 72 72 72 72 72 72 72 72 72 72 72 72 72 72 72 72 72 72 72 72 63 63 63 63 63 63 63 63 63 63 63 63 63 63 63 63 63 63 63 62 62 62 62 62 62 62 62 62 62 62 62 62 62 62 62 63 63 63 63 63 63 63 63 63 63 63 63 63 66 66 66 66 66 66 66 66 66 66 66 0
19 89 104 104 104 104 104 104 104 104 104 104 104 104 104 104 104 104 104 104 104 104 104 104 104 104 104 104 102 102 102 102 102 102 102 102 102 102 102 102 102 102 102 102 102 102 102 107 107 107 107 107 107 107 107 107 107 107 107 107 107 107 107 114 114 114 114 114 114 114 114 114 114 114 114 114 126 126 126 126 126 126 126 126 126 126 126 0
20 37 65 65 65 65 65 65 65 65 65 65 65 65 65 65 65 65 65 65 65 65 65 65 65 65 65 65 55 55 55 55 55 55 55 55 55 55 55 55 55 55 55 55 55 55 55 53 53 53 53 53 53 53 53 53 53 53 53 53 53 53 53 52 52 52 52 52 52 52 52 52 52 52 52 52 53 53 53 53 53 53 53 53 53 53 53 0
21 21 49 49 49 49 49 49 49 49 49 49 49 49 49 49 49 49 49 49 49 49 49 49 49 49 49 49 36 36 36 36 36 36 36 36 36 36 36 36 36 36 36 36 36 36 36 30 30 30 30 30 30 30 30 30 30 30 30 30 30 30 30 27 27 27 27 27 27 27 27 27 27 27 27 27 23 23 23 23 23 23 23 23 23 23 23 0
22 26 53 53 53 53 53 53 53 53 53 53 53 53 53 53 53 53 53 53 53 53 53 53 53 53 53 53 42 42 42 42 42 42 42 42 42 42 42 42 42 42 42 42 42 42 42 37 37 37 37 37 37 37 37 37 37 37 37 37 37 37 37 34 34 34 34 34 34 34 34 34 34 34 34 34 32 32 32 32 32 32 32 32 32 32 32 0
23 63 62 62 62 62 62 62 62 62 62 62 62 62 62 62 62 62 62 62 62 62 62 62 62 62 62 62 52 52 52 52 52 52 52 52 52 52 52 52 52 52 52 52 52 52 52 49 49 49 49 49 49 49 49 49 49 49 49 49 49 49 49 48 48 48 48 48 48 48 48 48 48 48 48 48 48 48 48 48 48 48 48 48 48 48 48 0
24 59 58 58 58 58 58 58 58 58 58 58 58 58 58 58 58 58 58 58 58 58 58 58 58 58 58 58 47 47 47 47 47 47 47 47 47 47 47 47 47 47 47 47 47 47 47 43 43 43 43 43 43 43 43 43 43 43 43 43 43 43 43 41 41 41 41 41 41 41 41 41 41 41 41 41 40 40 40 40 40 40 40 40 40 40 40 0
