NAME GBP_INSTANCES/prob_3_A_0_1_5
COMMENT
BINTYPES 3
ITEMS 25
BINS_SECTIONS
0 100 100 21 0 21
1 120 120 17 0 17
2 150 150 14 0 14
CONTAINERS_SECTIONS
0 100 100 0 1 0
1 100 100 0 1 0
2 100 100 0 1 0
3 100 100 0 1 0
4 100 100 0 1 0
5 100 100 0 1 0
6 100 100 0 1 0
7 100 100 0 1 0
8 100 100 0 1 0
9 100 100 0 1 0
10 100 100 0 1 0
11 100 100 0 1 0
12 100 100 0 1 0
13 100 100 0 1 0
14 100 100 0 1 0
15 100 100 0 1 0
16 100 100 0 1 0
17 100 100 0 1 0
18 100 100 0 1 0
19 100 100 0 1 0
20 100 100 0 1 0
21 120 120 0 1 0
22 120 120 0 1 0
23 120 120 0 1 0
24 120 120 0 1 0
25 120 120 0 1 0
26 120 120 0 1 0
27 120 120 0 1 0
28 120 120 0 1 0
29 120 120 0 1 0
30 120 120 0 1 0
31 120 120 0 1 0
32 120 120 0 1 0
33 120 120 0 1 0
34 120 120 0 1 0
35 120 120 0 1 0
36 120 120 0 1 0
37 120 120 0 1 0
38 150 150 0 1 0
39 150 150 0 1 0
40 150 150 0 1 0
41 150 150 0 1 0
42 150 150 0 1 0
43 150 150 0 1 0
44 150 150 0 1 0
45 150 150 0 1 0
46 150 150 0 1 0
47 150 150 0 1 0
48 150 150 0 1 0
49 150 150 0 1 0
50 150 150 0 1 0
51 150 150 0 1 0
ITEMS_SECTIONS
0 56 60 60 60 60 60 60 60 60 60 60 60 60 60 60 60 60 60 60 60 60 60 60 60 60 60 60 60 60 60 60 60 60 60 60 60 60 60 60 62 62 62 62 62 62 62 62 62 62 62 62 62 62 0
1 63 60 60 60 60 60 60 60 60 60 60 60 60 60 60 60 60 60 60 60 60 60 61 61 61 61 61 61 61 61 61 61 61 61 61 61 61 61 61 64 64 64 64 64 64 64 64 64 64 64 64 64 64 0
2 54 66 66 66 66 66 66 66 66 66 66 66 66 66 66 66 66 66 66 66 66 66 68 68 68 68 68 68 68 68 68 68 68 68 68 68 68 68 68 74 74 74 74 74 74 74 74 74 74 74 74 74 74 0
3 90 76 76 76 76 76 76 76 76 76 76 76 76 76 76 76 76 76 76 76 76 76 82 82 82 82 82 82 82 82 82 82 82 82 82 82 82 82 82 92 92 92 92 92 92 92 92 92 92 92 92 92 92 0
4 76 81 81 81 81 81 81 81 81 81 81 81 81 81 81 81 81 81 81 81 81 81 89 89 89 89 89 89 89 89 89 89 89 89 89 89 89 89 89 103 103 103 103 103 103 103 103 103 103 103 103 103 103 0
5 63 74 74 74 74 74 74 74 74 74 74 74 74 74 74 74 74 74 74 74 74 74 79 79 79 79 79 79 79 79 79 79 79 79 79 79 79 79 79 88 88 88 88 88 88 88 88 88 88 88 88 88 88 0
6 93 81 81 81 81 81 81 81 81 81 81 81 81 81 81 81 81 81 81 81 81 81 88 88 88 88 88 88 88 88 88 88 88 88 88 88 88 88 88 101 101 101 101 101 101 101 101 101 101 101 101 101 101 0
7 93 67 67 67 67 67 67 67 67 67 67 67 67 67 67 67 67 67 67 67 67 67 69 69 69 69 69 69 69 69 69 69 69 69 69 69 69 69 69 75 75 75 75 75 75 75 75 75 75 75 75 75 75 0
8 82 52 52 52 52 52 52 52 52 52 52 52 52 52 52 52 52 52 52 52 52 52 50 50 50 50 50 50 50 50 50 50 50 50 50 50 50 50 50 48 48 48 48 48 48 48 48 48 48 48 48 48 48 0
9 91 95 95 95 95 95 95 95 95 95 95 95 95 95 95 95 95 95 95 95 95 95 107 107 107 107 107 107 107 107 107 107 107 107 107 107 107 107 107 127 127 127 127 127 127 127 127 127 127 127 127 127 127 0
10 84 58 58 58 58 58 58 58 58 58 58 58 58 58 58 58 58 58 58 58 58 58 58 58 58 58 58 58 58 58 58 58 58 58 58 58 58 58 58 60 60 60 60 60 60 60 60 60 60 60 60 60 60 0
11 83 88 88 88 88 88 88 88 88 88 88 88 88 88 88 88 88 88 88 88 88 88 98 98 98 98 98 98 98 98 98 98 98 98 98 98 98 98 98 116 116 116 116 116 116 116 116 116 116 116 116 116 116 0
12 71 54 54 54 54 54 54 54 54 54 54 54 54 54 54 54 54 54 54 54 54 54 52 52 52 52 52 52 52 52 52 52 52 52 52 52 52 52 52 52 52 52 52 52 52 52 52 52 52 52 52 52 52 0
13 53 74 74 74 74 74 74 74 74 74 74 74 74 74 74 74 74 74 74 74 74 74 80 80 80 80 80 80 80 80 80 80 80 80 80 80 80 80 80 90 90 90 90 90 90 90 90 90 90 90 90 90 90 0
14 99 104 104 104 104 104 104 104 104 104 104 104 104 104 104 104 104 104 104 104 104 104 119 119 119 119 119 119 119 119 119 119 119 119 119 119 119 119 119 144 144 144 144 144 144 144 144 144 144 144 144 144 144 0
15 95 94 94 94 94 94 94 94 94 94 94 94 94 94 94 94 94 94 94 94 94 94 106 106 106 106 106 106 106 106 106 106 106 106 106 106 106 106 106 126 126 126 126 126 126 126 126 126 126 126 126 126 126 0
16 82 89 89 89 89 89 89 89 89 89 89 89 89 89 89 89 89 89 89 89 89 89 99 99 99 99 99 99 99 99 99 99 99 99 99 99 99 99 99 117 117 117 117 117 117 117 117 117 117 117 117 117 117 0
17 76 86 86 86 86 86 86 86 86 86 86 86 86 86 86 86 86 86 86 86 86 86 95 95 95 95 95 95 95 95 95 95 95 95 95 95 95 95 95 110 110 110 110 110 110 110 110 110 110 110 110 110 110 0
18 98 65 65 65 65 65 65 65 65 65 65 65 65 65 65 65 65 65 65 65 65 65 67 67 67 67 67 67 67 67 67 67 67 67 67 67 67 67 67 73 73 73 73 73 73 73 73 73 73 73 73 73 73 0
19 95 68 68 68 68 68 68 68 68 68 68 68 68 68 68 68 68 68 68 68 68 68 71 71 71 71 71 71 71 71 71 71 71 71 71 71 71 71 71 78 78 78 78 78 78 78 78 78 78 78 78 78 78 0
20 83 61 61 61 61 61 61 61 61 61 61 61 61 61 61 61 61 61 61 61 61 61 62 62 62 62 62 62 62 62 62 62 62 62 62 62 62 62 62 65 65 65 65 65 65 65 65 65 65 65 65 65 65 0
21 99 81 81 81 81 81 81 81 81 81 81 81 81 81 81 81 81 81 81 81 81 81 89 89 89 89 89 89 89 89 89 89 89 89 89 89 89 89 89 103 103 103 103 103 103 103 103 103 103 103 103 103 103 0
22 87 97 97 97 97 97 97 97 97 97 97 97 97 97 97 97 97 97 97 97 97 97 111 111 111 111 111 111 111 111 111 111 111 111 111 111 111 111 111 132 132 132 132 132 132 132 132 132 132 132 132 132 132 0
23 69 63 63 63 63 63 63 63 63 63 63 63 63 63 63 63 63 63 63 63 63 63 65 65 65 65 65 65 65 65 65 65 65 65 65 65 65 65 65 69 69 69 69 69 69 69 69 69 69 69 69 69 69 0
24 93 53 53 53 53 53 53 53 53 53 53 53 53 53 53 53 53 53 53 53 53 53 51 51 51 51 51 51 51 51 51 51 51 51 51 51 51 51 51 51 51 51 51 51 51 51 51 51 51 51 51 51 51 0
