NAME GBP_INSTANCES/prob_2_A_0_1_9
COMMENT
BINTYPES 3
ITEMS 25
BINS_SECTIONS
0 100 100 15 0 15
1 120 120 13 0 13
2 150 150 10 0 10
CONTAINERS_SECTIONS
0 100 100 0 1 0
1 100 100 0 1 0
2 100 100 0 1 0
3 100 100 0 1 0
4 100 100 0 1 0
5 100 100 0 1 0
6 100 100 0 1 0
7 100 100 0 1 0
8 100 100 0 1 0
9 100 100 0 1 0
10 100 100 0 1 0
11 100 100 0 1 0
12 100 100 0 1 0
13 100 100 0 1 0
14 100 100 0 1 0
15 120 120 0 1 0
16 120 120 0 1 0
17 120 120 0 1 0
18 120 120 0 1 0
19 120 120 0 1 0
20 120 120 0 1 0
21 120 120 0 1 0
22 120 120 0 1 0
23 120 120 0 1 0
24 120 120 0 1 0
25 120 120 0 1 0
26 120 120 0 1 0
27 120 120 0 1 0
28 150 150 0 1 0
29 150 150 0 1 0
30 150 150 0 1 0
31 150 150 0 1 0
32 150 150 0 1 0
33 150 150 0 1 0
34 150 150 0 1 0
35 150 150 0 1 0
36 150 150 0 1 0
37 150 150 0 1 0
ITEMS_SECTIONS
0 98 102 102 102 102 102 102 102 102 102 102 102 102 102 102 102 115 115 115 115 115 115 115 115 115 115 115 115 115 135 135 135 135 135 135 135 135 135 135 0
1 68 57 57 57 57 57 57 57 57 57 57 57 57 57 57 57 54 54 54 54 54 54 54 54 54 54 54 54 54 51 51 51 51 51 51 51 51 51 51 0
2 34 67 67 67 67 67 67 67 67 67 67 67 67 67 67 67 68 68 68 68 68 68 68 68 68 68 68 68 68 70 70 70 70 70 70 70 70 70 70 0
3 91 76 76 76 76 76 76 76 76 76 76 76 76 76 76 76 79 79 79 79 79 79 79 79 79 79 79 79 79 86 86 86 86 86 86 86 86 86 86 0
4 67 88 88 88 88 88 88 88 88 88 88 88 88 88 88 88 95 95 95 95 95 95 95 95 95 95 95 95 95 108 108 108 108 108 108 108 108 108 108 0
5 53 55 55 55 55 55 55 55 55 55 55 55 55 55 55 55 51 51 51 51 51 51 51 51 51 51 51 51 51 47 47 47 47 47 47 47 47 47 47 0
6 54 73 73 73 73 73 73 73 73 73 73 73 73 73 73 73 75 75 75 75 75 75 75 75 75 75 75 75 75 81 81 81 81 81 81 81 81 81 81 0
7 85 85 85 85 85 85 85 85 85 85 85 85 85 85 85 85 91 91 91 91 91 91 91 91 91 91 91 91 91 103 103 103 103 103 103 103 103 103 103 0
8 30 54 54 54 54 54 54 54 54 54 54 54 54 54 54 54 50 50 50 50 50 50 50 50 50 50 50 50 50 46 46 46 46 46 46 46 46 46 46 0
9 59 84 84 84 84 84 84 84 84 84 84 84 84 84 84 84 90 90 90 90 90 90 90 90 90 90 90 90 90 102 102 102 102 102 102 102 102 102 102 0
10 44 51 51 51 51 51 51 51 51 51 51 51 51 51 51 51 46 46 46 46 46 46 46 46 46 46 46 46 46 41 41 41 41 41 41 41 41 41 41 0
11 81 94 94 94 94 94 94 94 94 94 94 94 94 94 94 94 103 103 103 103 103 103 103 103 103 103 103 103 103 120 120 120 120 120 120 120 120 120 120 0
12 77 97 97 97 97 97 97 97 97 97 97 97 97 97 97 97 107 107 107 107 107 107 107 107 107 107 107 107 107 125 125 125 125 125 125 125 125 125 125 0
13 27 53 53 53 53 53 53 53 53 53 53 53 53 53 53 53 49 49 49 49 49 49 49 49 49 49 49 49 49 44 44 44 44 44 44 44 44 44 44 0
14 50 58 58 58 58 58 58 58 58 58 58 58 58 58 58 58 55 55 55 55 55 55 55 55 55 55 55 55 55 54 54 54 54 54 54 54 54 54 54 0
15 85 77 77 77 77 77 77 77 77 77 77 77 77 77 77 77 80 80 80 80 80 80 80 80 80 80 80 80 80 87 87 87 87 87 87 87 87 87 87 0
16 53 77 77 77 77 77 77 77 77 77 77 77 77 77 77 77 81 81 81 81 81 81 81 81 81 81 81 81 81 89 89 89 89 89 89 89 89 89 89 0
17 50 63 63 63 63 63 63 63 63 63 63 63 63 63 63 63 61 61 61 61 61 61 61 61 61 61 61 61 61 61 61 61 61 61 61 61 61 61 61 0
18 33 65 65 65 65 65 65 65 65 65 65 65 65 65 65 65 64 64 64 64 64 64 64 64 64 64 64 64 64 65 65 65 65 65 65 65 65 65 65 0
19 44 58 58 58 58 58 58 58 58 58 58 58 58 58 58 58 55 55 55 55 55 55 55 55 55 55 55 55 55 54 54 54 54 54 54 54 54 54 54 0
20 73 91 91 91 91 91 91 91 91 91 91 91 91 91 91 91 100 100 100 100 100 100 100 100 100 100 100 100 100 115 115 115 115 115 115 115 115 115 115 0
21 52 73 73 73 73 73 73 73 73 73 73 73 73 73 73 73 75 75 75 75 75 75 75 75 75 75 75 75 75 81 81 81 81 81 81 81 81 81 81 0
22 88 58 58 58 58 58 58 58 58 58 58 58 58 58 58 58 55 55 55 55 55 55 55 55 55 55 55 55 55 52 52 52 52 52 52 52 52 52 52 0
23 27 58 58 58 58 58 58 58 58 58 58 58 58 58 58 58 55 55 55 55 55 55 55 55 55 55 55 55 55 54 54 54 54 54 54 54 54 54 54 0
24 75 72 72 72 72 72 72 72 72 72 72 72 72 72 72 72 74 74 74 74 74 74 74 74 74 74 74 74 74 80 80 80 80 80 80 80 80 80 80 0
