NAME GBP_INSTANCES/prob_1_A_0_1_6
COMMENT
BINTYPES 3
ITEMS 25
BINS_SECTIONS
0 100 100 13 0 13
1 120 120 11 0 11
2 150 150 9 0 9
CONTAINERS_SECTIONS
0 100 100 0 1 0
1 100 100 0 1 0
2 100 100 0 1 0
3 100 100 0 1 0
4 100 100 0 1 0
5 100 100 0 1 0
6 100 100 0 1 0
7 100 100 0 1 0
8 100 100 0 1 0
9 100 100 0 1 0
10 100 100 0 1 0
11 100 100 0 1 0
12 100 100 0 1 0
13 120 120 0 1 0
14 120 120 0 1 0
15 120 120 0 1 0
16 120 120 0 1 0
17 120 120 0 1 0
18 120 120 0 1 0
19 120 120 0 1 0
20 120 120 0 1 0
21 120 120 0 1 0
22 120 120 0 1 0
23 120 120 0 1 0
24 150 150 0 1 0
25 150 150 0 1 0
26 150 150 0 1 0
27 150 150 0 1 0
28 150 150 0 1 0
29 150 150 0 1 0
30 150 150 0 1 0
31 150 150 0 1 0
32 150 150 0 1 0
ITEMS_SECTIONS
0 71 71 71 71 71 71 71 71 71 71 71 71 71 71 74 74 74 74 74 74 74 74 74 74 74 82 82 82 82 82 82 82 82 82 0
1 11 49 49 49 49 49 49 49 49 49 49 49 49 49 45 45 45 45 45 45 45 45 45 45 45 41 41 41 41 41 41 41 41 41 0
2 97 92 92 92 92 92 92 92 92 92 92 92 92 92 102 102 102 102 102 102 102 102 102 102 102 121 121 121 121 121 121 121 121 121 0
3 56 77 77 77 77 77 77 77 77 77 77 77 77 77 82 82 82 82 82 82 82 82 82 82 82 93 93 93 93 93 93 93 93 93 0
4 75 71 71 71 71 71 71 71 71 71 71 71 71 71 74 74 74 74 74 74 74 74 74 74 74 82 82 82 82 82 82 82 82 82 0
5 59 75 75 75 75 75 75 75 75 75 75 75 75 75 80 80 80 80 80 80 80 80 80 80 80 90 90 90 90 90 90 90 90 90 0
6 65 54 54 54 54 54 54 54 54 54 54 54 54 54 51 51 51 51 51 51 51 51 51 51 51 51 51 51 51 51 51 51 51 51 0
7 79 83 83 83 83 83 83 83 83 83 83 83 83 83 90 90 90 90 90 90 90 90 90 90 90 104 104 104 104 104 104 104 104 104 0
8 20 45 45 45 45 45 45 45 45 45 45 45 45 45 39 39 39 39 39 39 39 39 39 39 39 34 34 34 34 34 34 34 34 34 0
9 31 50 50 50 50 50 50 50 50 50 50 50 50 50 46 46 46 46 46 46 46 46 46 46 46 43 43 43 43 43 43 43 43 43 0
10 29 61 61 61 61 61 61 61 61 61 61 61 61 61 61 61 61 61 61 61 61 61 61 61 61 64 64 64 64 64 64 64 64 64 0
11 69 60 60 60 60 60 60 60 60 60 60 60 60 60 59 59 59 59 59 59 59 59 59 59 59 61 61 61 61 61 61 61 61 61 0
12 30 53 53 53 53 53 53 53 53 53 53 53 53 53 50 50 50 50 50 50 50 50 50 50 50 48 48 48 48 48 48 48 48 48 0
13 57 82 82 82 82 82 82 82 82 82 82 82 82 82 88 88 88 88 88 88 88 88 88 88 88 101 101 101 101 101 101 101 101 101 0
14 43 63 63 63 63 63 63 63 63 63 63 63 63 63 63 63 63 63 63 63 63 63 63 63 63 66 66 66 66 66 66 66 66 66 0
15 32 49 49 49 49 49 49 49 49 49 49 49 49 49 45 45 45 45 45 45 45 45 45 45 45 41 41 41 41 41 41 41 41 41 0
16 46 52 52 52 52 52 52 52 52 52 52 52 52 52 48 48 48 48 48 48 48 48 48 48 48 45 45 45 45 45 45 45 45 45 0
17 58 60 60 60 60 60 60 60 60 60 60 60 60 60 59 59 59 59 59 59 59 59 59 59 59 61 61 61 61 61 61 61 61 61 0
18 50 75 75 75 75 75 75 75 75 75 75 75 75 75 79 79 79 79 79 79 79 79 79 79 79 88 88 88 88 88 88 88 88 88 0
19 62 75 75 75 75 75 75 75 75 75 75 75 75 75 79 79 79 79 79 79 79 79 79 79 79 88 88 88 88 88 88 88 88 88 0
20 43 68 68 68 68 68 68 68 68 68 68 68 68 68 69 69 69 69 69 69 69 69 69 69 69 75 75 75 75 75 75 75 75 75 0
21 14 52 52 52 52 52 52 52 52 52 52 52 52 52 48 48 48 48 48 48 48 48 48 48 48 45 45 45 45 45 45 45 45 45 0
22 27 59 59 59 59 59 59 59 59 59 59 59 59 59 57 57 57 57 57 57 57 57 57 57 57 58 58 58 58 58 58 58 58 58 0
23 5 44 44 44 44 44 44 44 44 44 44 44 44 44 37 37 37 37 37 37 37 37 37 37 37 31 31 31 31 31 31 31 31 31 0
24 98 99 99 99 99 99 99 99 99 99 99 99 99 99 112 112 112 112 112 112 112 112 112 112 112 134 134 134 134 134 134 134 134 134 0
