NAME GBP_INSTANCES/prob_2_A_0_1_8
COMMENT
BINTYPES 3
ITEMS 25
BINS_SECTIONS
0 100 100 15 0 15
1 120 120 12 0 12
2 150 150 10 0 10
CONTAINERS_SECTIONS
0 100 100 0 1 0
1 100 100 0 1 0
2 100 100 0 1 0
3 100 100 0 1 0
4 100 100 0 1 0
5 100 100 0 1 0
6 100 100 0 1 0
7 100 100 0 1 0
8 100 100 0 1 0
9 100 100 0 1 0
10 100 100 0 1 0
11 100 100 0 1 0
12 100 100 0 1 0
13 100 100 0 1 0
14 100 100 0 1 0
15 120 120 0 1 0
16 120 120 0 1 0
17 120 120 0 1 0
18 120 120 0 1 0
19 120 120 0 1 0
20 120 120 0 1 0
21 120 120 0 1 0
22 120 120 0 1 0
23 120 120 0 1 0
24 120 120 0 1 0
25 120 120 0 1 0
26 120 120 0 1 0
27 150 150 0 1 0
28 150 150 0 1 0
29 150 150 0 1 0
30 150 150 0 1 0
31 150 150 0 1 0
32 150 150 0 1 0
33 150 150 0 1 0
34 150 150 0 1 0
35 150 150 0 1 0
36 150 150 0 1 0
ITEMS_SECTIONS
0 23 55 55 55 55 55 55 55 55 55 55 55 55 55 55 55 54 54 54 54 54 54 54 54 54 54 54 54 54 54 54 54 54 54 54 54 54 54 0
1 43 49 49 49 49 49 49 49 49 49 49 49 49 49 49 49 46 46 46 46 46 46 46 46 46 46 46 46 43 43 43 43 43 43 43 43 43 43 0
2 97 60 60 60 60 60 60 60 60 60 60 60 60 60 60 60 60 60 60 60 60 60 60 60 60 60 60 60 62 62 62 62 62 62 62 62 62 62 0
3 40 66 66 66 66 66 66 66 66 66 66 66 66 66 66 66 68 68 68 68 68 68 68 68 68 68 68 68 74 74 74 74 74 74 74 74 74 74 0
4 35 60 60 60 60 60 60 60 60 60 60 60 60 60 60 60 60 60 60 60 60 60 60 60 60 60 60 60 62 62 62 62 62 62 62 62 62 62 0
5 55 68 68 68 68 68 68 68 68 68 68 68 68 68 68 68 71 71 71 71 71 71 71 71 71 71 71 71 78 78 78 78 78 78 78 78 78 78 0
6 65 72 72 72 72 72 72 72 72 72 72 72 72 72 72 72 77 77 77 77 77 77 77 77 77 77 77 77 86 86 86 86 86 86 86 86 86 86 0
7 45 72 72 72 72 72 72 72 72 72 72 72 72 72 72 72 76 76 76 76 76 76 76 76 76 76 76 76 84 84 84 84 84 84 84 84 84 84 0
8 84 60 60 60 60 60 60 60 60 60 60 60 60 60 60 60 61 61 61 61 61 61 61 61 61 61 61 61 64 64 64 64 64 64 64 64 64 64 0
9 67 67 67 67 67 67 67 67 67 67 67 67 67 67 67 67 70 70 70 70 70 70 70 70 70 70 70 70 77 77 77 77 77 77 77 77 77 77 0
10 92 53 53 53 53 53 53 53 53 53 53 53 53 53 53 53 51 51 51 51 51 51 51 51 51 51 51 51 51 51 51 51 51 51 51 51 51 51 0
11 36 64 64 64 64 64 64 64 64 64 64 64 64 64 64 64 66 66 66 66 66 66 66 66 66 66 66 66 70 70 70 70 70 70 70 70 70 70 0
12 21 48 48 48 48 48 48 48 48 48 48 48 48 48 48 48 45 45 45 45 45 45 45 45 45 45 45 45 41 41 41 41 41 41 41 41 41 41 0
13 93 93 93 93 93 93 93 93 93 93 93 93 93 93 93 93 105 105 105 105 105 105 105 105 105 105 105 105 125 125 125 125 125 125 125 125 125 125 0
14 70 61 61 61 61 61 61 61 61 61 61 61 61 61 61 61 62 62 62 62 62 62 62 62 62 62 62 62 65 65 65 65 65 65 65 65 65 65 0
15 35 65 65 65 65 65 65 65 65 65 65 65 65 65 65 65 67 67 67 67 67 67 67 67 67 67 67 67 71 71 71 71 71 71 71 71 71 71 0
16 33 52 52 52 52 52 52 52 52 52 52 52 52 52 52 52 50 50 50 50 50 50 50 50 50 50 50 50 48 48 48 48 48 48 48 48 48 48 0
17 74 72 72 72 72 72 72 72 72 72 72 72 72 72 72 72 76 76 76 76 76 76 76 76 76 76 76 76 84 84 84 84 84 84 84 84 84 84 0
18 81 90 90 90 90 90 90 90 90 90 90 90 90 90 90 90 100 100 100 100 100 100 100 100 100 100 100 100 118 118 118 118 118 118 118 118 118 118 0
19 79 76 76 76 76 76 76 76 76 76 76 76 76 76 76 76 82 82 82 82 82 82 82 82 82 82 82 82 93 93 93 93 93 93 93 93 93 93 0
20 41 54 54 54 54 54 54 54 54 54 54 54 54 54 54 54 52 52 52 52 52 52 52 52 52 52 52 52 52 52 52 52 52 52 52 52 52 52 0
21 31 45 45 45 45 45 45 45 45 45 45 45 45 45 45 45 40 40 40 40 40 40 40 40 40 40 40 40 35 35 35 35 35 35 35 35 35 35 0
22 39 64 64 64 64 64 64 64 64 64 64 64 64 64 64 64 66 66 66 66 66 66 66 66 66 66 66 66 70 70 70 70 70 70 70 70 70 70 0
23 71 82 82 82 82 82 82 82 82 82 82 82 82 82 82 82 90 90 90 90 90 90 90 90 90 90 90 90 104 104 104 104 104 104 104 104 104 104 0
24 88 93 93 93 93 93 93 93 93 93 93 93 93 93 93 93 105 105 105 105 105 105 105 105 105 105 105 105 125 125 125 125 125 125 125 125 125 125 0
