NAME GBP_INSTANCES/prob_1_B_0_1_7
COMMENT
BINTYPES 5
ITEMS 25
BINS_SECTIONS
0 60 60 20 0 20
1 80 80 15 0 15
2 100 100 12 0 12
3 120 120 10 0 10
4 150 150 8 0 8
CONTAINERS_SECTIONS
0 60 60 0 1 0
1 60 60 0 1 0
2 60 60 0 1 0
3 60 60 0 1 0
4 60 60 0 1 0
5 60 60 0 1 0
6 60 60 0 1 0
7 60 60 0 1 0
8 60 60 0 1 0
9 60 60 0 1 0
10 60 60 0 1 0
11 60 60 0 1 0
12 60 60 0 1 0
13 60 60 0 1 0
14 60 60 0 1 0
15 60 60 0 1 0
16 60 60 0 1 0
17 60 60 0 1 0
18 60 60 0 1 0
19 60 60 0 1 0
20 80 80 0 1 0
21 80 80 0 1 0
22 80 80 0 1 0
23 80 80 0 1 0
24 80 80 0 1 0
25 80 80 0 1 0
26 80 80 0 1 0
27 80 80 0 1 0
28 80 80 0 1 0
29 80 80 0 1 0
30 80 80 0 1 0
31 80 80 0 1 0
32 80 80 0 1 0
33 80 80 0 1 0
34 80 80 0 1 0
35 100 100 0 1 0
36 100 100 0 1 0
37 100 100 0 1 0
38 100 100 0 1 0
39 100 100 0 1 0
40 100 100 0 1 0
41 100 100 0 1 0
42 100 100 0 1 0
43 100 100 0 1 0
44 100 100 0 1 0
45 100 100 0 1 0
46 100 100 0 1 0
47 120 120 0 1 0
48 120 120 0 1 0
49 120 120 0 1 0
50 120 120 0 1 0
51 120 120 0 1 0
52 120 120 0 1 0
53 120 120 0 1 0
54 120 120 0 1 0
55 120 120 0 1 0
56 120 120 0 1 0
57 150 150 0 1 0
58 150 150 0 1 0
59 150 150 0 1 0
60 150 150 0 1 0
61 150 150 0 1 0
62 150 150 0 1 0
63 150 150 0 1 0
64 150 150 0 1 0
ITEMS_SECTIONS
0 21 57 57 57 57 57 57 57 57 57 57 57 57 57 57 57 57 57 57 57 57 49 49 49 49 49 49 49 49 49 49 49 49 49 49 49 44 44 44 44 44 44 44 44 44 44 44 44 44 44 44 44 44 44 44 44 44 44 43 43 43 43 43 43 43 43 0
1 74 75 75 75 75 75 75 75 75 75 75 75 75 75 75 75 75 75 75 75 75 71 71 71 71 71 71 71 71 71 71 71 71 71 71 71 69 69 69 69 69 69 69 69 69 69 69 69 73 73 73 73 73 73 73 73 73 73 77 77 77 77 77 77 77 77 0
2 52 70 70 70 70 70 70 70 70 70 70 70 70 70 70 70 70 70 70 70 70 65 65 65 65 65 65 65 65 65 65 65 65 65 65 65 62 62 62 62 62 62 62 62 62 62 62 62 65 65 65 65 65 65 65 65 65 65 68 68 68 68 68 68 68 68 0
3 62 68 68 68 68 68 68 68 68 68 68 68 68 68 68 68 68 68 68 68 68 63 63 63 63 63 63 63 63 63 63 63 63 63 63 63 59 59 59 59 59 59 59 59 59 59 59 59 62 62 62 62 62 62 62 62 62 62 64 64 64 64 64 64 64 64 0
4 34 63 63 63 63 63 63 63 63 63 63 63 63 63 63 63 63 63 63 63 63 56 56 56 56 56 56 56 56 56 56 56 56 56 56 56 52 52 52 52 52 52 52 52 52 52 52 52 53 53 53 53 53 53 53 53 53 53 53 53 53 53 53 53 53 53 0
5 77 95 95 95 95 95 95 95 95 95 95 95 95 95 95 95 95 95 95 95 95 94 94 94 94 94 94 94 94 94 94 94 94 94 94 94 96 96 96 96 96 96 96 96 96 96 96 96 104 104 104 104 104 104 104 104 104 104 113 113 113 113 113 113 113 113 0
6 97 100 100 100 100 100 100 100 100 100 100 100 100 100 100 100 100 100 100 100 100 100 100 100 100 100 100 100 100 100 100 100 100 100 100 100 103 103 103 103 103 103 103 103 103 103 103 103 111 111 111 111 111 111 111 111 111 111 122 122 122 122 122 122 122 122 0
7 77 92 92 92 92 92 92 92 92 92 92 92 92 92 92 92 92 92 92 92 92 91 91 91 91 91 91 91 91 91 91 91 91 91 91 91 92 92 92 92 92 92 92 92 92 92 92 92 99 99 99 99 99 99 99 99 99 99 108 108 108 108 108 108 108 108 0
8 55 68 68 68 68 68 68 68 68 68 68 68 68 68 68 68 68 68 68 68 68 62 62 62 62 62 62 62 62 62 62 62 62 62 62 62 58 58 58 58 58 58 58 58 58 58 58 58 61 61 61 61 61 61 61 61 61 61 62 62 62 62 62 62 62 62 0
9 17 50 50 50 50 50 50 50 50 50 50 50 50 50 50 50 50 50 50 50 50 41 41 41 41 41 41 41 41 41 41 41 41 41 41 41 34 34 34 34 34 34 34 34 34 34 34 34 33 33 33 33 33 33 33 33 33 33 30 30 30 30 30 30 30 30 0
10 64 77 77 77 77 77 77 77 77 77 77 77 77 77 77 77 77 77 77 77 77 73 73 73 73 73 73 73 73 73 73 73 73 73 73 73 71 71 71 71 71 71 71 71 71 71 71 71 75 75 75 75 75 75 75 75 75 75 79 79 79 79 79 79 79 79 0
11 5 47 47 47 47 47 47 47 47 47 47 47 47 47 47 47 47 47 47 47 47 37 37 37 37 37 37 37 37 37 37 37 37 37 37 37 29 29 29 29 29 29 29 29 29 29 29 29 28 28 28 28 28 28 28 28 28 28 23 23 23 23 23 23 23 23 0
12 19 52 52 52 52 52 52 52 52 52 52 52 52 52 52 52 52 52 52 52 52 44 44 44 44 44 44 44 44 44 44 44 44 44 44 44 37 37 37 37 37 37 37 37 37 37 37 37 37 37 37 37 37 37 37 37 37 37 34 34 34 34 34 34 34 34 0
13 89 88 88 88 88 88 88 88 88 88 88 88 88 88 88 88 88 88 88 88 88 86 86 86 86 86 86 86 86 86 86 86 86 86 86 86 86 86 86 86 86 86 86 86 86 86 86 86 93 93 93 93 93 93 93 93 93 93 100 100 100 100 100 100 100 100 0
14 18 51 51 51 51 51 51 51 51 51 51 51 51 51 51 51 51 51 51 51 51 42 42 42 42 42 42 42 42 42 42 42 42 42 42 42 35 35 35 35 35 35 35 35 35 35 35 35 34 34 34 34 34 34 34 34 34 34 31 31 31 31 31 31 31 31 0
15 89 96 96 96 96 96 96 96 96 96 96 96 96 96 96 96 96 96 96 96 96 96 96 96 96 96 96 96 96 96 96 96 96 96 96 96 98 98 98 98 98 98 98 98 98 98 98 98 106 106 106 106 106 106 106 106 106 106 116 116 116 116 116 116 116 116 0
16 15 49 49 49 49 49 49 49 49 49 49 49 49 49 49 49 49 49 49 49 49 39 39 39 39 39 39 39 39 39 39 39 39 39 39 39 32 32 32 32 32 32 32 32 32 32 32 32 31 31 31 31 31 31 31 31 31 31 27 27 27 27 27 27 27 27 0
17 7 47 47 47 47 47 47 47 47 47 47 47 47 47 47 47 47 47 47 47 47 38 38 38 38 38 38 38 38 38 38 38 38 38 38 38 30 30 30 30 30 30 30 30 30 30 30 30 29 29 29 29 29 29 29 29 29 29 25 25 25 25 25 25 25 25 0
18 12 49 49 49 49 49 49 49 49 49 49 49 49 49 49 49 49 49 49 49 49 40 40 40 40 40 40 40 40 40 40 40 40 40 40 40 33 33 33 33 33 33 33 33 33 33 33 33 32 32 32 32 32 32 32 32 32 32 29 29 29 29 29 29 29 29 0
19 85 55 55 55 55 55 55 55 55 55 55 55 55 55 55 55 55 55 55 55 55 47 47 47 47 47 47 47 47 47 47 47 47 47 47 47 41 41 41 41 41 41 41 41 41 41 41 41 41 41 41 41 41 41 41 41 41 41 39 39 39 39 39 39 39 39 0
20 86 65 65 65 65 65 65 65 65 65 65 65 65 65 65 65 65 65 65 65 65 59 59 59 59 59 59 59 59 59 59 59 59 59 59 59 55 55 55 55 55 55 55 55 55 55 55 55 57 57 57 57 57 57 57 57 57 57 58 58 58 58 58 58 58 58 0
21 39 65 65 65 65 65 65 65 65 65 65 65 65 65 65 65 65 65 65 65 65 59 59 59 59 59 59 59 59 59 59 59 59 59 59 59 55 55 55 55 55 55 55 55 55 55 55 55 57 57 57 57 57 57 57 57 57 57 58 58 58 58 58 58 58 58 0
22 54 80 80 80 80 80 80 80 80 80 80 80 80 80 80 80 80 80 80 80 80 77 77 77 77 77 77 77 77 77 77 77 77 77 77 77 76 76 76 76 76 76 76 76 76 76 76 76 81 81 81 81 81 81 81 81 81 81 86 86 86 86 86 86 86 86 0
23 23 57 57 57 57 57 57 57 57 57 57 57 57 57 57 57 57 57 57 57 57 49 49 49 49 49 49 49 49 49 49 49 49 49 49 49 44 44 44 44 44 44 44 44 44 44 44 44 44 44 44 44 44 44 44 44 44 44 43 43 43 43 43 43 43 43 0
24 11 47 47 47 47 47 47 47 47 47 47 47 47 47 47 47 47 47 47 47 47 37 37 37 37 37 37 37 37 37 37 37 37 37 37 37 29 29 29 29 29 29 29 29 29 29 29 29 28 28 28 28 28 28 28 28 28 28 23 23 23 23 23 23 23 23 0
