NAME GBP_INSTANCES/prob_2_A_0_1_5
COMMENT
BINTYPES 3
ITEMS 25
BINS_SECTIONS
0 100 100 15 0 15
1 120 120 13 0 13
2 150 150 10 0 10
CONTAINERS_SECTIONS
0 100 100 0 1 0
1 100 100 0 1 0
2 100 100 0 1 0
3 100 100 0 1 0
4 100 100 0 1 0
5 100 100 0 1 0
6 100 100 0 1 0
7 100 100 0 1 0
8 100 100 0 1 0
9 100 100 0 1 0
10 100 100 0 1 0
11 100 100 0 1 0
12 100 100 0 1 0
13 100 100 0 1 0
14 100 100 0 1 0
15 120 120 0 1 0
16 120 120 0 1 0
17 120 120 0 1 0
18 120 120 0 1 0
19 120 120 0 1 0
20 120 120 0 1 0
21 120 120 0 1 0
22 120 120 0 1 0
23 120 120 0 1 0
24 120 120 0 1 0
25 120 120 0 1 0
26 120 120 0 1 0
27 120 120 0 1 0
28 150 150 0 1 0
29 150 150 0 1 0
30 150 150 0 1 0
31 150 150 0 1 0
32 150 150 0 1 0
33 150 150 0 1 0
34 150 150 0 1 0
35 150 150 0 1 0
36 150 150 0 1 0
37 150 150 0 1 0
ITEMS_SECTIONS
0 94 89 89 89 89 89 89 89 89 89 89 89 89 89 89 89 96 96 96 96 96 96 96 96 96 96 96 96 96 110 110 110 110 110 110 110 110 110 110 0
1 90 109 109 109 109 109 109 109 109 109 109 109 109 109 109 109 122 122 122 122 122 122 122 122 122 122 122 122 122 146 146 146 146 146 146 146 146 146 146 0
2 51 54 54 54 54 54 54 54 54 54 54 54 54 54 54 54 49 49 49 49 49 49 49 49 49 49 49 49 49 45 45 45 45 45 45 45 45 45 45 0
3 62 57 57 57 57 57 57 57 57 57 57 57 57 57 57 57 53 53 53 53 53 53 53 53 53 53 53 53 53 50 50 50 50 50 50 50 50 50 50 0
4 80 56 56 56 56 56 56 56 56 56 56 56 56 56 56 56 52 52 52 52 52 52 52 52 52 52 52 52 52 49 49 49 49 49 49 49 49 49 49 0
5 24 58 58 58 58 58 58 58 58 58 58 58 58 58 58 58 54 54 54 54 54 54 54 54 54 54 54 54 54 51 51 51 51 51 51 51 51 51 51 0
6 81 102 102 102 102 102 102 102 102 102 102 102 102 102 102 102 113 113 113 113 113 113 113 113 113 113 113 113 113 133 133 133 133 133 133 133 133 133 133 0
7 37 64 64 64 64 64 64 64 64 64 64 64 64 64 64 64 62 62 62 62 62 62 62 62 62 62 62 62 62 63 63 63 63 63 63 63 63 63 63 0
8 88 94 94 94 94 94 94 94 94 94 94 94 94 94 94 94 102 102 102 102 102 102 102 102 102 102 102 102 102 119 119 119 119 119 119 119 119 119 119 0
9 32 51 51 51 51 51 51 51 51 51 51 51 51 51 51 51 44 44 44 44 44 44 44 44 44 44 44 44 44 38 38 38 38 38 38 38 38 38 38 0
10 65 88 88 88 88 88 88 88 88 88 88 88 88 88 88 88 94 94 94 94 94 94 94 94 94 94 94 94 94 107 107 107 107 107 107 107 107 107 107 0
11 94 69 69 69 69 69 69 69 69 69 69 69 69 69 69 69 69 69 69 69 69 69 69 69 69 69 69 69 69 72 72 72 72 72 72 72 72 72 72 0
12 28 65 65 65 65 65 65 65 65 65 65 65 65 65 65 65 64 64 64 64 64 64 64 64 64 64 64 64 64 66 66 66 66 66 66 66 66 66 66 0
13 44 53 53 53 53 53 53 53 53 53 53 53 53 53 53 53 47 47 47 47 47 47 47 47 47 47 47 47 47 42 42 42 42 42 42 42 42 42 42 0
14 65 61 61 61 61 61 61 61 61 61 61 61 61 61 61 61 58 58 58 58 58 58 58 58 58 58 58 58 58 58 58 58 58 58 58 58 58 58 58 0
15 42 56 56 56 56 56 56 56 56 56 56 56 56 56 56 56 52 52 52 52 52 52 52 52 52 52 52 52 52 49 49 49 49 49 49 49 49 49 49 0
16 46 67 67 67 67 67 67 67 67 67 67 67 67 67 67 67 66 66 66 66 66 66 66 66 66 66 66 66 66 68 68 68 68 68 68 68 68 68 68 0
17 28 65 65 65 65 65 65 65 65 65 65 65 65 65 65 65 64 64 64 64 64 64 64 64 64 64 64 64 64 66 66 66 66 66 66 66 66 66 66 0
18 30 53 53 53 53 53 53 53 53 53 53 53 53 53 53 53 47 47 47 47 47 47 47 47 47 47 47 47 47 42 42 42 42 42 42 42 42 42 42 0
19 93 66 66 66 66 66 66 66 66 66 66 66 66 66 66 66 65 65 65 65 65 65 65 65 65 65 65 65 65 67 67 67 67 67 67 67 67 67 67 0
20 96 87 87 87 87 87 87 87 87 87 87 87 87 87 87 87 93 93 93 93 93 93 93 93 93 93 93 93 93 106 106 106 106 106 106 106 106 106 106 0
21 52 77 77 77 77 77 77 77 77 77 77 77 77 77 77 77 79 79 79 79 79 79 79 79 79 79 79 79 79 86 86 86 86 86 86 86 86 86 86 0
22 47 77 77 77 77 77 77 77 77 77 77 77 77 77 77 77 79 79 79 79 79 79 79 79 79 79 79 79 79 86 86 86 86 86 86 86 86 86 86 0
23 26 60 60 60 60 60 60 60 60 60 60 60 60 60 60 60 56 56 56 56 56 56 56 56 56 56 56 56 56 55 55 55 55 55 55 55 55 55 55 0
24 80 96 96 96 96 96 96 96 96 96 96 96 96 96 96 96 105 105 105 105 105 105 105 105 105 105 105 105 105 123 123 123 123 123 123 123 123 123 123 0
