NAME GBP_INSTANCES/prob_3_A_0_1_4
COMMENT
BINTYPES 3
ITEMS 25
BINS_SECTIONS
0 100 100 20 0 20
1 120 120 17 0 17
2 150 150 14 0 14
CONTAINERS_SECTIONS
0 100 100 0 1 0
1 100 100 0 1 0
2 100 100 0 1 0
3 100 100 0 1 0
4 100 100 0 1 0
5 100 100 0 1 0
6 100 100 0 1 0
7 100 100 0 1 0
8 100 100 0 1 0
9 100 100 0 1 0
10 100 100 0 1 0
11 100 100 0 1 0
12 100 100 0 1 0
13 100 100 0 1 0
14 100 100 0 1 0
15 100 100 0 1 0
16 100 100 0 1 0
17 100 100 0 1 0
18 100 100 0 1 0
19 100 100 0 1 0
20 120 120 0 1 0
21 120 120 0 1 0
22 120 120 0 1 0
23 120 120 0 1 0
24 120 120 0 1 0
25 120 120 0 1 0
26 120 120 0 1 0
27 120 120 0 1 0
28 120 120 0 1 0
29 120 120 0 1 0
30 120 120 0 1 0
31 120 120 0 1 0
32 120 120 0 1 0
33 120 120 0 1 0
34 120 120 0 1 0
35 120 120 0 1 0
36 120 120 0 1 0
37 150 150 0 1 0
38 150 150 0 1 0
39 150 150 0 1 0
40 150 150 0 1 0
41 150 150 0 1 0
42 150 150 0 1 0
43 150 150 0 1 0
44 150 150 0 1 0
45 150 150 0 1 0
46 150 150 0 1 0
47 150 150 0 1 0
48 150 150 0 1 0
49 150 150 0 1 0
50 150 150 0 1 0
ITEMS_SECTIONS
0 60 85 85 85 85 85 85 85 85 85 85 85 85 85 85 85 85 85 85 85 85 88 88 88 88 88 88 88 88 88 88 88 88 88 88 88 88 88 103 103 103 103 103 103 103 103 103 103 103 103 103 103 0
1 69 77 77 77 77 77 77 77 77 77 77 77 77 77 77 77 77 77 77 77 77 77 77 77 77 77 77 77 77 77 77 77 77 77 77 77 77 77 87 87 87 87 87 87 87 87 87 87 87 87 87 87 0
2 79 87 87 87 87 87 87 87 87 87 87 87 87 87 87 87 87 87 87 87 87 90 90 90 90 90 90 90 90 90 90 90 90 90 90 90 90 90 105 105 105 105 105 105 105 105 105 105 105 105 105 105 0
3 53 74 74 74 74 74 74 74 74 74 74 74 74 74 74 74 74 74 74 74 74 73 73 73 73 73 73 73 73 73 73 73 73 73 73 73 73 73 82 82 82 82 82 82 82 82 82 82 82 82 82 82 0
4 79 84 84 84 84 84 84 84 84 84 84 84 84 84 84 84 84 84 84 84 84 86 86 86 86 86 86 86 86 86 86 86 86 86 86 86 86 86 100 100 100 100 100 100 100 100 100 100 100 100 100 100 0
5 91 69 69 69 69 69 69 69 69 69 69 69 69 69 69 69 69 69 69 69 69 67 67 67 67 67 67 67 67 67 67 67 67 67 67 67 67 67 73 73 73 73 73 73 73 73 73 73 73 73 73 73 0
6 94 97 97 97 97 97 97 97 97 97 97 97 97 97 97 97 97 97 97 97 97 104 104 104 104 104 104 104 104 104 104 104 104 104 104 104 104 104 125 125 125 125 125 125 125 125 125 125 125 125 125 125 0
7 60 85 85 85 85 85 85 85 85 85 85 85 85 85 85 85 85 85 85 85 85 88 88 88 88 88 88 88 88 88 88 88 88 88 88 88 88 88 103 103 103 103 103 103 103 103 103 103 103 103 103 103 0
8 71 89 89 89 89 89 89 89 89 89 89 89 89 89 89 89 89 89 89 89 89 94 94 94 94 94 94 94 94 94 94 94 94 94 94 94 94 94 110 110 110 110 110 110 110 110 110 110 110 110 110 110 0
9 55 82 82 82 82 82 82 82 82 82 82 82 82 82 82 82 82 82 82 82 82 84 84 84 84 84 84 84 84 84 84 84 84 84 84 84 84 84 97 97 97 97 97 97 97 97 97 97 97 97 97 97 0
10 92 80 80 80 80 80 80 80 80 80 80 80 80 80 80 80 80 80 80 80 80 82 82 82 82 82 82 82 82 82 82 82 82 82 82 82 82 82 94 94 94 94 94 94 94 94 94 94 94 94 94 94 0
11 77 89 89 89 89 89 89 89 89 89 89 89 89 89 89 89 89 89 89 89 89 93 93 93 93 93 93 93 93 93 93 93 93 93 93 93 93 93 109 109 109 109 109 109 109 109 109 109 109 109 109 109 0
12 87 96 96 96 96 96 96 96 96 96 96 96 96 96 96 96 96 96 96 96 96 102 102 102 102 102 102 102 102 102 102 102 102 102 102 102 102 102 122 122 122 122 122 122 122 122 122 122 122 122 122 122 0
13 88 106 106 106 106 106 106 106 106 106 106 106 106 106 106 106 106 106 106 106 106 116 116 116 116 116 116 116 116 116 116 116 116 116 116 116 116 116 140 140 140 140 140 140 140 140 140 140 140 140 140 140 0
14 93 66 66 66 66 66 66 66 66 66 66 66 66 66 66 66 66 66 66 66 66 62 62 62 62 62 62 62 62 62 62 62 62 62 62 62 62 62 66 66 66 66 66 66 66 66 66 66 66 66 66 66 0
15 76 92 92 92 92 92 92 92 92 92 92 92 92 92 92 92 92 92 92 92 92 98 98 98 98 98 98 98 98 98 98 98 98 98 98 98 98 98 116 116 116 116 116 116 116 116 116 116 116 116 116 116 0
16 90 61 61 61 61 61 61 61 61 61 61 61 61 61 61 61 61 61 61 61 61 56 56 56 56 56 56 56 56 56 56 56 56 56 56 56 56 56 58 58 58 58 58 58 58 58 58 58 58 58 58 58 0
17 78 89 89 89 89 89 89 89 89 89 89 89 89 89 89 89 89 89 89 89 89 93 93 93 93 93 93 93 93 93 93 93 93 93 93 93 93 93 109 109 109 109 109 109 109 109 109 109 109 109 109 109 0
18 64 67 67 67 67 67 67 67 67 67 67 67 67 67 67 67 67 67 67 67 67 64 64 64 64 64 64 64 64 64 64 64 64 64 64 64 64 64 69 69 69 69 69 69 69 69 69 69 69 69 69 69 0
19 78 79 79 79 79 79 79 79 79 79 79 79 79 79 79 79 79 79 79 79 79 80 80 80 80 80 80 80 80 80 80 80 80 80 80 80 80 80 91 91 91 91 91 91 91 91 91 91 91 91 91 91 0
20 80 99 99 99 99 99 99 99 99 99 99 99 99 99 99 99 99 99 99 99 99 106 106 106 106 106 106 106 106 106 106 106 106 106 106 106 106 106 127 127 127 127 127 127 127 127 127 127 127 127 127 127 0
21 92 84 84 84 84 84 84 84 84 84 84 84 84 84 84 84 84 84 84 84 84 86 86 86 86 86 86 86 86 86 86 86 86 86 86 86 86 86 100 100 100 100 100 100 100 100 100 100 100 100 100 100 0
22 72 57 57 57 57 57 57 57 57 57 57 57 57 57 57 57 57 57 57 57 57 50 50 50 50 50 50 50 50 50 50 50 50 50 50 50 50 50 49 49 49 49 49 49 49 49 49 49 49 49 49 49 0
23 99 82 82 82 82 82 82 82 82 82 82 82 82 82 82 82 82 82 82 82 82 84 84 84 84 84 84 84 84 84 84 84 84 84 84 84 84 84 96 96 96 96 96 96 96 96 96 96 96 96 96 96 0
24 92 59 59 59 59 59 59 59 59 59 59 59 59 59 59 59 59 59 59 59 59 53 53 53 53 53 53 53 53 53 53 53 53 53 53 53 53 53 53 53 53 53 53 53 53 53 53 53 53 53 53 53 0
