NAME GBP_INSTANCES/prob_2_B_0_1_6
COMMENT
BINTYPES 5
ITEMS 25
BINS_SECTIONS
0 60 60 27 0 27
1 80 80 20 0 20
2 100 100 16 0 16
3 120 120 14 0 14
4 150 150 11 0 11
CONTAINERS_SECTIONS
0 60 60 0 1 0
1 60 60 0 1 0
2 60 60 0 1 0
3 60 60 0 1 0
4 60 60 0 1 0
5 60 60 0 1 0
6 60 60 0 1 0
7 60 60 0 1 0
8 60 60 0 1 0
9 60 60 0 1 0
10 60 60 0 1 0
11 60 60 0 1 0
12 60 60 0 1 0
13 60 60 0 1 0
14 60 60 0 1 0
15 60 60 0 1 0
16 60 60 0 1 0
17 60 60 0 1 0
18 60 60 0 1 0
19 60 60 0 1 0
20 60 60 0 1 0
21 60 60 0 1 0
22 60 60 0 1 0
23 60 60 0 1 0
24 60 60 0 1 0
25 60 60 0 1 0
26 60 60 0 1 0
27 80 80 0 1 0
28 80 80 0 1 0
29 80 80 0 1 0
30 80 80 0 1 0
31 80 80 0 1 0
32 80 80 0 1 0
33 80 80 0 1 0
34 80 80 0 1 0
35 80 80 0 1 0
36 80 80 0 1 0
37 80 80 0 1 0
38 80 80 0 1 0
39 80 80 0 1 0
40 80 80 0 1 0
41 80 80 0 1 0
42 80 80 0 1 0
43 80 80 0 1 0
44 80 80 0 1 0
45 80 80 0 1 0
46 80 80 0 1 0
47 100 100 0 1 0
48 100 100 0 1 0
49 100 100 0 1 0
50 100 100 0 1 0
51 100 100 0 1 0
52 100 100 0 1 0
53 100 100 0 1 0
54 100 100 0 1 0
55 100 100 0 1 0
56 100 100 0 1 0
57 100 100 0 1 0
58 100 100 0 1 0
59 100 100 0 1 0
60 100 100 0 1 0
61 100 100 0 1 0
62 100 100 0 1 0
63 120 120 0 1 0
64 120 120 0 1 0
65 120 120 0 1 0
66 120 120 0 1 0
67 120 120 0 1 0
68 120 120 0 1 0
69 120 120 0 1 0
70 120 120 0 1 0
71 120 120 0 1 0
72 120 120 0 1 0
73 120 120 0 1 0
74 120 120 0 1 0
75 120 120 0 1 0
76 120 120 0 1 0
77 150 150 0 1 0
78 150 150 0 1 0
79 150 150 0 1 0
80 150 150 0 1 0
81 150 150 0 1 0
82 150 150 0 1 0
83 150 150 0 1 0
84 150 150 0 1 0
85 150 150 0 1 0
86 150 150 0 1 0
87 150 150 0 1 0
ITEMS_SECTIONS
0 57 67 67 67 67 67 67 67 67 67 67 67 67 67 67 67 67 67 67 67 67 67 67 67 67 67 67 67 58 58 58 58 58 58 58 58 58 58 58 58 58 58 58 58 58 58 58 58 56 56 56 56 56 56 56 56 56 56 56 56 56 56 56 56 56 56 56 56 56 56 56 56 56 56 56 56 56 56 58 58 58 58 58 58 58 58 58 58 58 0
1 32 52 52 52 52 52 52 52 52 52 52 52 52 52 52 52 52 52 52 52 52 52 52 52 52 52 52 52 40 40 40 40 40 40 40 40 40 40 40 40 40 40 40 40 40 40 40 40 35 35 35 35 35 35 35 35 35 35 35 35 35 35 35 35 32 32 32 32 32 32 32 32 32 32 32 32 32 32 30 30 30 30 30 30 30 30 30 30 30 0
2 27 56 56 56 56 56 56 56 56 56 56 56 56 56 56 56 56 56 56 56 56 56 56 56 56 56 56 56 45 45 45 45 45 45 45 45 45 45 45 45 45 45 45 45 45 45 45 45 41 41 41 41 41 41 41 41 41 41 41 41 41 41 41 41 39 39 39 39 39 39 39 39 39 39 39 39 39 39 38 38 38 38 38 38 38 38 38 38 38 0
3 75 92 92 92 92 92 92 92 92 92 92 92 92 92 92 92 92 92 92 92 92 92 92 92 92 92 92 92 88 88 88 88 88 88 88 88 88 88 88 88 88 88 88 88 88 88 88 88 90 90 90 90 90 90 90 90 90 90 90 90 90 90 90 90 95 95 95 95 95 95 95 95 95 95 95 95 95 95 104 104 104 104 104 104 104 104 104 104 104 0
4 35 53 53 53 53 53 53 53 53 53 53 53 53 53 53 53 53 53 53 53 53 53 53 53 53 53 53 53 42 42 42 42 42 42 42 42 42 42 42 42 42 42 42 42 42 42 42 42 37 37 37 37 37 37 37 37 37 37 37 37 37 37 37 37 34 34 34 34 34 34 34 34 34 34 34 34 34 34 32 32 32 32 32 32 32 32 32 32 32 0
5 64 66 66 66 66 66 66 66 66 66 66 66 66 66 66 66 66 66 66 66 66 66 66 66 66 66 66 66 57 57 57 57 57 57 57 57 57 57 57 57 57 57 57 57 57 57 57 57 55 55 55 55 55 55 55 55 55 55 55 55 55 55 55 55 54 54 54 54 54 54 54 54 54 54 54 54 54 54 56 56 56 56 56 56 56 56 56 56 56 0
6 72 57 57 57 57 57 57 57 57 57 57 57 57 57 57 57 57 57 57 57 57 57 57 57 57 57 57 57 46 46 46 46 46 46 46 46 46 46 46 46 46 46 46 46 46 46 46 46 42 42 42 42 42 42 42 42 42 42 42 42 42 42 42 42 40 40 40 40 40 40 40 40 40 40 40 40 40 40 39 39 39 39 39 39 39 39 39 39 39 0
7 58 84 84 84 84 84 84 84 84 84 84 84 84 84 84 84 84 84 84 84 84 84 84 84 84 84 84 84 78 78 78 78 78 78 78 78 78 78 78 78 78 78 78 78 78 78 78 78 80 80 80 80 80 80 80 80 80 80 80 80 80 80 80 80 83 83 83 83 83 83 83 83 83 83 83 83 83 83 90 90 90 90 90 90 90 90 90 90 90 0
8 82 97 97 97 97 97 97 97 97 97 97 97 97 97 97 97 97 97 97 97 97 97 97 97 97 97 97 97 93 93 93 93 93 93 93 93 93 93 93 93 93 93 93 93 93 93 93 93 97 97 97 97 97 97 97 97 97 97 97 97 97 97 97 97 103 103 103 103 103 103 103 103 103 103 103 103 103 103 113 113 113 113 113 113 113 113 113 113 113 0
9 88 81 81 81 81 81 81 81 81 81 81 81 81 81 81 81 81 81 81 81 81 81 81 81 81 81 81 81 74 74 74 74 74 74 74 74 74 74 74 74 74 74 74 74 74 74 74 74 75 75 75 75 75 75 75 75 75 75 75 75 75 75 75 75 77 77 77 77 77 77 77 77 77 77 77 77 77 77 83 83 83 83 83 83 83 83 83 83 83 0
10 57 83 83 83 83 83 83 83 83 83 83 83 83 83 83 83 83 83 83 83 83 83 83 83 83 83 83 83 77 77 77 77 77 77 77 77 77 77 77 77 77 77 77 77 77 77 77 77 78 78 78 78 78 78 78 78 78 78 78 78 78 78 78 78 81 81 81 81 81 81 81 81 81 81 81 81 81 81 87 87 87 87 87 87 87 87 87 87 87 0
11 53 72 72 72 72 72 72 72 72 72 72 72 72 72 72 72 72 72 72 72 72 72 72 72 72 72 72 72 63 63 63 63 63 63 63 63 63 63 63 63 63 63 63 63 63 63 63 63 62 62 62 62 62 62 62 62 62 62 62 62 62 62 62 62 63 63 63 63 63 63 63 63 63 63 63 63 63 63 66 66 66 66 66 66 66 66 66 66 66 0
12 62 72 72 72 72 72 72 72 72 72 72 72 72 72 72 72 72 72 72 72 72 72 72 72 72 72 72 72 63 63 63 63 63 63 63 63 63 63 63 63 63 63 63 63 63 63 63 63 62 62 62 62 62 62 62 62 62 62 62 62 62 62 62 62 63 63 63 63 63 63 63 63 63 63 63 63 63 63 66 66 66 66 66 66 66 66 66 66 66 0
13 63 80 80 80 80 80 80 80 80 80 80 80 80 80 80 80 80 80 80 80 80 80 80 80 80 80 80 80 73 73 73 73 73 73 73 73 73 73 73 73 73 73 73 73 73 73 73 73 74 74 74 74 74 74 74 74 74 74 74 74 74 74 74 74 76 76 76 76 76 76 76 76 76 76 76 76 76 76 82 82 82 82 82 82 82 82 82 82 82 0
14 53 57 57 57 57 57 57 57 57 57 57 57 57 57 57 57 57 57 57 57 57 57 57 57 57 57 57 57 46 46 46 46 46 46 46 46 46 46 46 46 46 46 46 46 46 46 46 46 42 42 42 42 42 42 42 42 42 42 42 42 42 42 42 42 40 40 40 40 40 40 40 40 40 40 40 40 40 40 39 39 39 39 39 39 39 39 39 39 39 0
15 70 94 94 94 94 94 94 94 94 94 94 94 94 94 94 94 94 94 94 94 94 94 94 94 94 94 94 94 90 90 90 90 90 90 90 90 90 90 90 90 90 90 90 90 90 90 90 90 93 93 93 93 93 93 93 93 93 93 93 93 93 93 93 93 98 98 98 98 98 98 98 98 98 98 98 98 98 98 108 108 108 108 108 108 108 108 108 108 108 0
16 100 114 114 114 114 114 114 114 114 114 114 114 114 114 114 114 114 114 114 114 114 114 114 114 114 114 114 114 114 114 114 114 114 114 114 114 114 114 114 114 114 114 114 114 114 114 114 114 121 121 121 121 121 121 121 121 121 121 121 121 121 121 121 121 130 130 130 130 130 130 130 130 130 130 130 130 130 130 146 146 146 146 146 146 146 146 146 146 146 0
17 88 72 72 72 72 72 72 72 72 72 72 72 72 72 72 72 72 72 72 72 72 72 72 72 72 72 72 72 63 63 63 63 63 63 63 63 63 63 63 63 63 63 63 63 63 63 63 63 62 62 62 62 62 62 62 62 62 62 62 62 62 62 62 62 63 63 63 63 63 63 63 63 63 63 63 63 63 63 66 66 66 66 66 66 66 66 66 66 66 0
18 59 60 60 60 60 60 60 60 60 60 60 60 60 60 60 60 60 60 60 60 60 60 60 60 60 60 60 60 49 49 49 49 49 49 49 49 49 49 49 49 49 49 49 49 49 49 49 49 46 46 46 46 46 46 46 46 46 46 46 46 46 46 46 46 44 44 44 44 44 44 44 44 44 44 44 44 44 44 44 44 44 44 44 44 44 44 44 44 44 0
19 50 63 63 63 63 63 63 63 63 63 63 63 63 63 63 63 63 63 63 63 63 63 63 63 63 63 63 63 53 53 53 53 53 53 53 53 53 53 53 53 53 53 53 53 53 53 53 53 51 51 51 51 51 51 51 51 51 51 51 51 51 51 51 51 50 50 50 50 50 50 50 50 50 50 50 50 50 50 51 51 51 51 51 51 51 51 51 51 51 0
20 38 62 62 62 62 62 62 62 62 62 62 62 62 62 62 62 62 62 62 62 62 62 62 62 62 62 62 62 52 52 52 52 52 52 52 52 52 52 52 52 52 52 52 52 52 52 52 52 49 49 49 49 49 49 49 49 49 49 49 49 49 49 49 49 48 48 48 48 48 48 48 48 48 48 48 48 48 48 48 48 48 48 48 48 48 48 48 48 48 0
21 77 98 98 98 98 98 98 98 98 98 98 98 98 98 98 98 98 98 98 98 98 98 98 98 98 98 98 98 94 94 94 94 94 94 94 94 94 94 94 94 94 94 94 94 94 94 94 94 98 98 98 98 98 98 98 98 98 98 98 98 98 98 98 98 104 104 104 104 104 104 104 104 104 104 104 104 104 104 114 114 114 114 114 114 114 114 114 114 114 0
22 73 58 58 58 58 58 58 58 58 58 58 58 58 58 58 58 58 58 58 58 58 58 58 58 58 58 58 58 47 47 47 47 47 47 47 47 47 47 47 47 47 47 47 47 47 47 47 47 43 43 43 43 43 43 43 43 43 43 43 43 43 43 43 43 41 41 41 41 41 41 41 41 41 41 41 41 41 41 40 40 40 40 40 40 40 40 40 40 40 0
23 65 78 78 78 78 78 78 78 78 78 78 78 78 78 78 78 78 78 78 78 78 78 78 78 78 78 78 78 71 71 71 71 71 71 71 71 71 71 71 71 71 71 71 71 71 71 71 71 71 71 71 71 71 71 71 71 71 71 71 71 71 71 71 71 73 73 73 73 73 73 73 73 73 73 73 73 73 73 78 78 78 78 78 78 78 78 78 78 78 0
24 89 97 97 97 97 97 97 97 97 97 97 97 97 97 97 97 97 97 97 97 97 97 97 97 97 97 97 97 93 93 93 93 93 93 93 93 93 93 93 93 93 93 93 93 93 93 93 93 97 97 97 97 97 97 97 97 97 97 97 97 97 97 97 97 103 103 103 103 103 103 103 103 103 103 103 103 103 103 113 113 113 113 113 113 113 113 113 113 113 0
