NAME GBP_INSTANCES/prob_1_B_0_1_1
COMMENT
BINTYPES 5
ITEMS 25
BINS_SECTIONS
0 60 60 21 0 21
1 80 80 16 0 16
2 100 100 13 0 13
3 120 120 11 0 11
4 150 150 9 0 9
CONTAINERS_SECTIONS
0 60 60 0 1 0
1 60 60 0 1 0
2 60 60 0 1 0
3 60 60 0 1 0
4 60 60 0 1 0
5 60 60 0 1 0
6 60 60 0 1 0
7 60 60 0 1 0
8 60 60 0 1 0
9 60 60 0 1 0
10 60 60 0 1 0
11 60 60 0 1 0
12 60 60 0 1 0
13 60 60 0 1 0
14 60 60 0 1 0
15 60 60 0 1 0
16 60 60 0 1 0
17 60 60 0 1 0
18 60 60 0 1 0
19 60 60 0 1 0
20 60 60 0 1 0
21 80 80 0 1 0
22 80 80 0 1 0
23 80 80 0 1 0
24 80 80 0 1 0
25 80 80 0 1 0
26 80 80 0 1 0
27 80 80 0 1 0
28 80 80 0 1 0
29 80 80 0 1 0
30 80 80 0 1 0
31 80 80 0 1 0
32 80 80 0 1 0
33 80 80 0 1 0
34 80 80 0 1 0
35 80 80 0 1 0
36 80 80 0 1 0
37 100 100 0 1 0
38 100 100 0 1 0
39 100 100 0 1 0
40 100 100 0 1 0
41 100 100 0 1 0
42 100 100 0 1 0
43 100 100 0 1 0
44 100 100 0 1 0
45 100 100 0 1 0
46 100 100 0 1 0
47 100 100 0 1 0
48 100 100 0 1 0
49 100 100 0 1 0
50 120 120 0 1 0
51 120 120 0 1 0
52 120 120 0 1 0
53 120 120 0 1 0
54 120 120 0 1 0
55 120 120 0 1 0
56 120 120 0 1 0
57 120 120 0 1 0
58 120 120 0 1 0
59 120 120 0 1 0
60 120 120 0 1 0
61 150 150 0 1 0
62 150 150 0 1 0
63 150 150 0 1 0
64 150 150 0 1 0
65 150 150 0 1 0
66 150 150 0 1 0
67 150 150 0 1 0
68 150 150 0 1 0
69 150 150 0 1 0
ITEMS_SECTIONS
0 30 65 65 65 65 65 65 65 65 65 65 65 65 65 65 65 65 65 65 65 65 65 59 59 59 59 59 59 59 59 59 59 59 59 59 59 59 59 55 55 55 55 55 55 55 55 55 55 55 55 55 56 56 56 56 56 56 56 56 56 56 56 57 57 57 57 57 57 57 57 57 0
1 23 51 51 51 51 51 51 51 51 51 51 51 51 51 51 51 51 51 51 51 51 51 42 42 42 42 42 42 42 42 42 42 42 42 42 42 42 42 35 35 35 35 35 35 35 35 35 35 35 35 35 34 34 34 34 34 34 34 34 34 34 34 31 31 31 31 31 31 31 31 31 0
2 88 66 66 66 66 66 66 66 66 66 66 66 66 66 66 66 66 66 66 66 66 66 60 60 60 60 60 60 60 60 60 60 60 60 60 60 60 60 56 56 56 56 56 56 56 56 56 56 56 56 56 59 59 59 59 59 59 59 59 59 59 59 60 60 60 60 60 60 60 60 60 0
3 91 64 64 64 64 64 64 64 64 64 64 64 64 64 64 64 64 64 64 64 64 64 58 58 58 58 58 58 58 58 58 58 58 58 58 58 58 58 54 54 54 54 54 54 54 54 54 54 54 54 54 55 55 55 55 55 55 55 55 55 55 55 56 56 56 56 56 56 56 56 56 0
4 6 47 47 47 47 47 47 47 47 47 47 47 47 47 47 47 47 47 47 47 47 47 37 37 37 37 37 37 37 37 37 37 37 37 37 37 37 37 29 29 29 29 29 29 29 29 29 29 29 29 29 28 28 28 28 28 28 28 28 28 28 28 23 23 23 23 23 23 23 23 23 0
5 16 47 47 47 47 47 47 47 47 47 47 47 47 47 47 47 47 47 47 47 47 47 37 37 37 37 37 37 37 37 37 37 37 37 37 37 37 37 29 29 29 29 29 29 29 29 29 29 29 29 29 28 28 28 28 28 28 28 28 28 28 28 23 23 23 23 23 23 23 23 23 0
6 62 72 72 72 72 72 72 72 72 72 72 72 72 72 72 72 72 72 72 72 72 72 67 67 67 67 67 67 67 67 67 67 67 67 67 67 67 67 64 64 64 64 64 64 64 64 64 64 64 64 64 67 67 67 67 67 67 67 67 67 67 67 70 70 70 70 70 70 70 70 70 0
7 50 69 69 69 69 69 69 69 69 69 69 69 69 69 69 69 69 69 69 69 69 69 64 64 64 64 64 64 64 64 64 64 64 64 64 64 64 64 60 60 60 60 60 60 60 60 60 60 60 60 60 63 63 63 63 63 63 63 63 63 63 63 65 65 65 65 65 65 65 65 65 0
8 30 60 60 60 60 60 60 60 60 60 60 60 60 60 60 60 60 60 60 60 60 60 53 53 53 53 53 53 53 53 53 53 53 53 53 53 53 53 48 48 48 48 48 48 48 48 48 48 48 48 48 49 49 49 49 49 49 49 49 49 49 49 48 48 48 48 48 48 48 48 48 0
9 19 54 54 54 54 54 54 54 54 54 54 54 54 54 54 54 54 54 54 54 54 54 46 46 46 46 46 46 46 46 46 46 46 46 46 46 46 46 40 40 40 40 40 40 40 40 40 40 40 40 40 40 40 40 40 40 40 40 40 40 40 40 38 38 38 38 38 38 38 38 38 0
10 90 87 87 87 87 87 87 87 87 87 87 87 87 87 87 87 87 87 87 87 87 87 85 85 85 85 85 85 85 85 85 85 85 85 85 85 85 85 85 85 85 85 85 85 85 85 85 85 85 85 85 92 92 92 92 92 92 92 92 92 92 92 99 99 99 99 99 99 99 99 99 0
11 35 62 62 62 62 62 62 62 62 62 62 62 62 62 62 62 62 62 62 62 62 62 55 55 55 55 55 55 55 55 55 55 55 55 55 55 55 55 51 51 51 51 51 51 51 51 51 51 51 51 51 52 52 52 52 52 52 52 52 52 52 52 52 52 52 52 52 52 52 52 52 0
12 59 80 80 80 80 80 80 80 80 80 80 80 80 80 80 80 80 80 80 80 80 80 77 77 77 77 77 77 77 77 77 77 77 77 77 77 77 77 76 76 76 76 76 76 76 76 76 76 76 76 76 81 81 81 81 81 81 81 81 81 81 81 86 86 86 86 86 86 86 86 86 0
13 16 52 52 52 52 52 52 52 52 52 52 52 52 52 52 52 52 52 52 52 52 52 44 44 44 44 44 44 44 44 44 44 44 44 44 44 44 44 37 37 37 37 37 37 37 37 37 37 37 37 37 37 37 37 37 37 37 37 37 37 37 37 34 34 34 34 34 34 34 34 34 0
14 85 89 89 89 89 89 89 89 89 89 89 89 89 89 89 89 89 89 89 89 89 89 88 88 88 88 88 88 88 88 88 88 88 88 88 88 88 88 88 88 88 88 88 88 88 88 88 88 88 88 88 95 95 95 95 95 95 95 95 95 95 95 103 103 103 103 103 103 103 103 103 0
15 65 73 73 73 73 73 73 73 73 73 73 73 73 73 73 73 73 73 73 73 73 73 69 69 69 69 69 69 69 69 69 69 69 69 69 69 69 69 66 66 66 66 66 66 66 66 66 66 66 66 66 70 70 70 70 70 70 70 70 70 70 70 73 73 73 73 73 73 73 73 73 0
16 30 57 57 57 57 57 57 57 57 57 57 57 57 57 57 57 57 57 57 57 57 57 49 49 49 49 49 49 49 49 49 49 49 49 49 49 49 49 44 44 44 44 44 44 44 44 44 44 44 44 44 44 44 44 44 44 44 44 44 44 44 44 43 43 43 43 43 43 43 43 43 0
17 12 46 46 46 46 46 46 46 46 46 46 46 46 46 46 46 46 46 46 46 46 46 36 36 36 36 36 36 36 36 36 36 36 36 36 36 36 36 28 28 28 28 28 28 28 28 28 28 28 28 28 27 27 27 27 27 27 27 27 27 27 27 22 22 22 22 22 22 22 22 22 0
18 71 71 71 71 71 71 71 71 71 71 71 71 71 71 71 71 71 71 71 71 71 71 66 66 66 66 66 66 66 66 66 66 66 66 66 66 66 66 63 63 63 63 63 63 63 63 63 63 63 63 63 66 66 66 66 66 66 66 66 66 66 66 69 69 69 69 69 69 69 69 69 0
19 52 60 60 60 60 60 60 60 60 60 60 60 60 60 60 60 60 60 60 60 60 60 53 53 53 53 53 53 53 53 53 53 53 53 53 53 53 53 48 48 48 48 48 48 48 48 48 48 48 48 48 49 49 49 49 49 49 49 49 49 49 49 48 48 48 48 48 48 48 48 48 0
20 51 63 63 63 63 63 63 63 63 63 63 63 63 63 63 63 63 63 63 63 63 63 56 56 56 56 56 56 56 56 56 56 56 56 56 56 56 56 52 52 52 52 52 52 52 52 52 52 52 52 52 53 53 53 53 53 53 53 53 53 53 53 53 53 53 53 53 53 53 53 53 0
21 3 45 45 45 45 45 45 45 45 45 45 45 45 45 45 45 45 45 45 45 45 45 35 35 35 35 35 35 35 35 35 35 35 35 35 35 35 35 27 27 27 27 27 27 27 27 27 27 27 27 27 26 26 26 26 26 26 26 26 26 26 26 21 21 21 21 21 21 21 21 21 0
22 95 96 96 96 96 96 96 96 96 96 96 96 96 96 96 96 96 96 96 96 96 96 95 95 95 95 95 95 95 95 95 95 95 95 95 95 95 95 97 97 97 97 97 97 97 97 97 97 97 97 97 105 105 105 105 105 105 105 105 105 105 105 114 114 114 114 114 114 114 114 114 0
23 87 63 63 63 63 63 63 63 63 63 63 63 63 63 63 63 63 63 63 63 63 63 56 56 56 56 56 56 56 56 56 56 56 56 56 56 56 56 52 52 52 52 52 52 52 52 52 52 52 52 52 53 53 53 53 53 53 53 53 53 53 53 53 53 53 53 53 53 53 53 53 0
24 73 80 80 80 80 80 80 80 80 80 80 80 80 80 80 80 80 80 80 80 80 80 77 77 77 77 77 77 77 77 77 77 77 77 77 77 77 77 76 76 76 76 76 76 76 76 76 76 76 76 76 81 81 81 81 81 81 81 81 81 81 81 86 86 86 86 86 86 86 86 86 0
