NAME GBP_INSTANCES/prob_2_B_0_1_4
COMMENT
BINTYPES 5
ITEMS 25
BINS_SECTIONS
0 60 60 25 0 25
1 80 80 19 0 19
2 100 100 15 0 15
3 120 120 13 0 13
4 150 150 10 0 10
CONTAINERS_SECTIONS
0 60 60 0 1 0
1 60 60 0 1 0
2 60 60 0 1 0
3 60 60 0 1 0
4 60 60 0 1 0
5 60 60 0 1 0
6 60 60 0 1 0
7 60 60 0 1 0
8 60 60 0 1 0
9 60 60 0 1 0
10 60 60 0 1 0
11 60 60 0 1 0
12 60 60 0 1 0
13 60 60 0 1 0
14 60 60 0 1 0
15 60 60 0 1 0
16 60 60 0 1 0
17 60 60 0 1 0
18 60 60 0 1 0
19 60 60 0 1 0
20 60 60 0 1 0
21 60 60 0 1 0
22 60 60 0 1 0
23 60 60 0 1 0
24 60 60 0 1 0
25 80 80 0 1 0
26 80 80 0 1 0
27 80 80 0 1 0
28 80 80 0 1 0
29 80 80 0 1 0
30 80 80 0 1 0
31 80 80 0 1 0
32 80 80 0 1 0
33 80 80 0 1 0
34 80 80 0 1 0
35 80 80 0 1 0
36 80 80 0 1 0
37 80 80 0 1 0
38 80 80 0 1 0
39 80 80 0 1 0
40 80 80 0 1 0
41 80 80 0 1 0
42 80 80 0 1 0
43 80 80 0 1 0
44 100 100 0 1 0
45 100 100 0 1 0
46 100 100 0 1 0
47 100 100 0 1 0
48 100 100 0 1 0
49 100 100 0 1 0
50 100 100 0 1 0
51 100 100 0 1 0
52 100 100 0 1 0
53 100 100 0 1 0
54 100 100 0 1 0
55 100 100 0 1 0
56 100 100 0 1 0
57 100 100 0 1 0
58 100 100 0 1 0
59 120 120 0 1 0
60 120 120 0 1 0
61 120 120 0 1 0
62 120 120 0 1 0
63 120 120 0 1 0
64 120 120 0 1 0
65 120 120 0 1 0
66 120 120 0 1 0
67 120 120 0 1 0
68 120 120 0 1 0
69 120 120 0 1 0
70 120 120 0 1 0
71 120 120 0 1 0
72 150 150 0 1 0
73 150 150 0 1 0
74 150 150 0 1 0
75 150 150 0 1 0
76 150 150 0 1 0
77 150 150 0 1 0
78 150 150 0 1 0
79 150 150 0 1 0
80 150 150 0 1 0
81 150 150 0 1 0
ITEMS_SECTIONS
0 36 65 65 65 65 65 65 65 65 65 65 65 65 65 65 65 65 65 65 65 65 65 65 65 65 65 56 56 56 56 56 56 56 56 56 56 56 56 56 56 56 56 56 56 56 54 54 54 54 54 54 54 54 54 54 54 54 54 54 54 53 53 53 53 53 53 53 53 53 53 53 53 53 55 55 55 55 55 55 55 55 55 55 0
1 76 80 80 80 80 80 80 80 80 80 80 80 80 80 80 80 80 80 80 80 80 80 80 80 80 80 73 73 73 73 73 73 73 73 73 73 73 73 73 73 73 73 73 73 73 74 74 74 74 74 74 74 74 74 74 74 74 74 74 74 76 76 76 76 76 76 76 76 76 76 76 76 76 82 82 82 82 82 82 82 82 82 82 0
2 22 58 58 58 58 58 58 58 58 58 58 58 58 58 58 58 58 58 58 58 58 58 58 58 58 58 47 47 47 47 47 47 47 47 47 47 47 47 47 47 47 47 47 47 47 43 43 43 43 43 43 43 43 43 43 43 43 43 43 43 41 41 41 41 41 41 41 41 41 41 41 41 41 40 40 40 40 40 40 40 40 40 40 0
3 46 67 67 67 67 67 67 67 67 67 67 67 67 67 67 67 67 67 67 67 67 67 67 67 67 67 58 58 58 58 58 58 58 58 58 58 58 58 58 58 58 58 58 58 58 56 56 56 56 56 56 56 56 56 56 56 56 56 56 56 56 56 56 56 56 56 56 56 56 56 56 56 56 58 58 58 58 58 58 58 58 58 58 0
4 81 88 88 88 88 88 88 88 88 88 88 88 88 88 88 88 88 88 88 88 88 88 88 88 88 88 83 83 83 83 83 83 83 83 83 83 83 83 83 83 83 83 83 83 83 85 85 85 85 85 85 85 85 85 85 85 85 85 85 85 88 88 88 88 88 88 88 88 88 88 88 88 88 96 96 96 96 96 96 96 96 96 96 0
5 70 91 91 91 91 91 91 91 91 91 91 91 91 91 91 91 91 91 91 91 91 91 91 91 91 91 86 86 86 86 86 86 86 86 86 86 86 86 86 86 86 86 86 86 86 88 88 88 88 88 88 88 88 88 88 88 88 88 88 88 93 93 93 93 93 93 93 93 93 93 93 93 93 101 101 101 101 101 101 101 101 101 101 0
6 49 59 59 59 59 59 59 59 59 59 59 59 59 59 59 59 59 59 59 59 59 59 59 59 59 59 48 48 48 48 48 48 48 48 48 48 48 48 48 48 48 48 48 48 48 45 45 45 45 45 45 45 45 45 45 45 45 45 45 45 43 43 43 43 43 43 43 43 43 43 43 43 43 43 43 43 43 43 43 43 43 43 43 0
7 74 98 98 98 98 98 98 98 98 98 98 98 98 98 98 98 98 98 98 98 98 98 98 98 98 98 94 94 94 94 94 94 94 94 94 94 94 94 94 94 94 94 94 94 94 98 98 98 98 98 98 98 98 98 98 98 98 98 98 98 104 104 104 104 104 104 104 104 104 104 104 104 104 114 114 114 114 114 114 114 114 114 114 0
8 99 75 75 75 75 75 75 75 75 75 75 75 75 75 75 75 75 75 75 75 75 75 75 75 75 75 68 68 68 68 68 68 68 68 68 68 68 68 68 68 68 68 68 68 68 67 67 67 67 67 67 67 67 67 67 67 67 67 67 67 69 69 69 69 69 69 69 69 69 69 69 69 69 73 73 73 73 73 73 73 73 73 73 0
9 29 67 67 67 67 67 67 67 67 67 67 67 67 67 67 67 67 67 67 67 67 67 67 67 67 67 58 58 58 58 58 58 58 58 58 58 58 58 58 58 58 58 58 58 58 56 56 56 56 56 56 56 56 56 56 56 56 56 56 56 55 55 55 55 55 55 55 55 55 55 55 55 55 57 57 57 57 57 57 57 57 57 57 0
10 85 94 94 94 94 94 94 94 94 94 94 94 94 94 94 94 94 94 94 94 94 94 94 94 94 94 90 90 90 90 90 90 90 90 90 90 90 90 90 90 90 90 90 90 90 93 93 93 93 93 93 93 93 93 93 93 93 93 93 93 98 98 98 98 98 98 98 98 98 98 98 98 98 108 108 108 108 108 108 108 108 108 108 0
11 23 62 62 62 62 62 62 62 62 62 62 62 62 62 62 62 62 62 62 62 62 62 62 62 62 62 52 52 52 52 52 52 52 52 52 52 52 52 52 52 52 52 52 52 52 49 49 49 49 49 49 49 49 49 49 49 49 49 49 49 48 48 48 48 48 48 48 48 48 48 48 48 48 48 48 48 48 48 48 48 48 48 48 0
12 85 56 56 56 56 56 56 56 56 56 56 56 56 56 56 56 56 56 56 56 56 56 56 56 56 56 45 45 45 45 45 45 45 45 45 45 45 45 45 45 45 45 45 45 45 41 41 41 41 41 41 41 41 41 41 41 41 41 41 41 39 39 39 39 39 39 39 39 39 39 39 39 39 38 38 38 38 38 38 38 38 38 38 0
13 92 62 62 62 62 62 62 62 62 62 62 62 62 62 62 62 62 62 62 62 62 62 62 62 62 62 52 52 52 52 52 52 52 52 52 52 52 52 52 52 52 52 52 52 52 49 49 49 49 49 49 49 49 49 49 49 49 49 49 49 48 48 48 48 48 48 48 48 48 48 48 48 48 48 48 48 48 48 48 48 48 48 48 0
14 33 60 60 60 60 60 60 60 60 60 60 60 60 60 60 60 60 60 60 60 60 60 60 60 60 60 50 50 50 50 50 50 50 50 50 50 50 50 50 50 50 50 50 50 50 47 47 47 47 47 47 47 47 47 47 47 47 47 47 47 45 45 45 45 45 45 45 45 45 45 45 45 45 45 45 45 45 45 45 45 45 45 45 0
15 55 75 75 75 75 75 75 75 75 75 75 75 75 75 75 75 75 75 75 75 75 75 75 75 75 75 68 68 68 68 68 68 68 68 68 68 68 68 68 68 68 68 68 68 68 67 67 67 67 67 67 67 67 67 67 67 67 67 67 67 69 69 69 69 69 69 69 69 69 69 69 69 69 73 73 73 73 73 73 73 73 73 73 0
16 59 81 81 81 81 81 81 81 81 81 81 81 81 81 81 81 81 81 81 81 81 81 81 81 81 81 75 75 75 75 75 75 75 75 75 75 75 75 75 75 75 75 75 75 75 76 76 76 76 76 76 76 76 76 76 76 76 76 76 76 79 79 79 79 79 79 79 79 79 79 79 79 79 84 84 84 84 84 84 84 84 84 84 0
17 49 76 76 76 76 76 76 76 76 76 76 76 76 76 76 76 76 76 76 76 76 76 76 76 76 76 68 68 68 68 68 68 68 68 68 68 68 68 68 68 68 68 68 68 68 68 68 68 68 68 68 68 68 68 68 68 68 68 68 68 70 70 70 70 70 70 70 70 70 70 70 70 70 74 74 74 74 74 74 74 74 74 74 0
18 21 58 58 58 58 58 58 58 58 58 58 58 58 58 58 58 58 58 58 58 58 58 58 58 58 58 47 47 47 47 47 47 47 47 47 47 47 47 47 47 47 47 47 47 47 43 43 43 43 43 43 43 43 43 43 43 43 43 43 43 41 41 41 41 41 41 41 41 41 41 41 41 41 40 40 40 40 40 40 40 40 40 40 0
19 54 65 65 65 65 65 65 65 65 65 65 65 65 65 65 65 65 65 65 65 65 65 65 65 65 65 56 56 56 56 56 56 56 56 56 56 56 56 56 56 56 56 56 56 56 54 54 54 54 54 54 54 54 54 54 54 54 54 54 54 53 53 53 53 53 53 53 53 53 53 53 53 53 55 55 55 55 55 55 55 55 55 55 0
20 61 77 77 77 77 77 77 77 77 77 77 77 77 77 77 77 77 77 77 77 77 77 77 77 77 77 69 69 69 69 69 69 69 69 69 69 69 69 69 69 69 69 69 69 69 69 69 69 69 69 69 69 69 69 69 69 69 69 69 69 71 71 71 71 71 71 71 71 71 71 71 71 71 75 75 75 75 75 75 75 75 75 75 0
21 79 90 90 90 90 90 90 90 90 90 90 90 90 90 90 90 90 90 90 90 90 90 90 90 90 90 85 85 85 85 85 85 85 85 85 85 85 85 85 85 85 85 85 85 85 87 87 87 87 87 87 87 87 87 87 87 87 87 87 87 92 92 92 92 92 92 92 92 92 92 92 92 92 100 100 100 100 100 100 100 100 100 100 0
22 73 65 65 65 65 65 65 65 65 65 65 65 65 65 65 65 65 65 65 65 65 65 65 65 65 65 55 55 55 55 55 55 55 55 55 55 55 55 55 55 55 55 55 55 55 53 53 53 53 53 53 53 53 53 53 53 53 53 53 53 52 52 52 52 52 52 52 52 52 52 52 52 52 53 53 53 53 53 53 53 53 53 53 0
23 44 58 58 58 58 58 58 58 58 58 58 58 58 58 58 58 58 58 58 58 58 58 58 58 58 58 47 47 47 47 47 47 47 47 47 47 47 47 47 47 47 47 47 47 47 43 43 43 43 43 43 43 43 43 43 43 43 43 43 43 41 41 41 41 41 41 41 41 41 41 41 41 41 40 40 40 40 40 40 40 40 40 40 0
24 89 70 70 70 70 70 70 70 70 70 70 70 70 70 70 70 70 70 70 70 70 70 70 70 70 70 62 62 62 62 62 62 62 62 62 62 62 62 62 62 62 62 62 62 62 60 60 60 60 60 60 60 60 60 60 60 60 60 60 60 61 61 61 61 61 61 61 61 61 61 61 61 61 64 64 64 64 64 64 64 64 64 64 0
