NAME GBP_INSTANCES/prob_3_A_0_1_8
COMMENT
BINTYPES 3
ITEMS 25
BINS_SECTIONS
0 100 100 20 0 20
1 120 120 17 0 17
2 150 150 14 0 14
CONTAINERS_SECTIONS
0 100 100 0 1 0
1 100 100 0 1 0
2 100 100 0 1 0
3 100 100 0 1 0
4 100 100 0 1 0
5 100 100 0 1 0
6 100 100 0 1 0
7 100 100 0 1 0
8 100 100 0 1 0
9 100 100 0 1 0
10 100 100 0 1 0
11 100 100 0 1 0
12 100 100 0 1 0
13 100 100 0 1 0
14 100 100 0 1 0
15 100 100 0 1 0
16 100 100 0 1 0
17 100 100 0 1 0
18 100 100 0 1 0
19 100 100 0 1 0
20 120 120 0 1 0
21 120 120 0 1 0
22 120 120 0 1 0
23 120 120 0 1 0
24 120 120 0 1 0
25 120 120 0 1 0
26 120 120 0 1 0
27 120 120 0 1 0
28 120 120 0 1 0
29 120 120 0 1 0
30 120 120 0 1 0
31 120 120 0 1 0
32 120 120 0 1 0
33 120 120 0 1 0
34 120 120 0 1 0
35 120 120 0 1 0
36 120 120 0 1 0
37 150 150 0 1 0
38 150 150 0 1 0
39 150 150 0 1 0
40 150 150 0 1 0
41 150 150 0 1 0
42 150 150 0 1 0
43 150 150 0 1 0
44 150 150 0 1 0
45 150 150 0 1 0
46 150 150 0 1 0
47 150 150 0 1 0
48 150 150 0 1 0
49 150 150 0 1 0
50 150 150 0 1 0
ITEMS_SECTIONS
0 76 67 67 67 67 67 67 67 67 67 67 67 67 67 67 67 67 67 67 67 67 64 64 64 64 64 64 64 64 64 64 64 64 64 64 64 64 64 69 69 69 69 69 69 69 69 69 69 69 69 69 69 0
1 81 89 89 89 89 89 89 89 89 89 89 89 89 89 89 89 89 89 89 89 89 93 93 93 93 93 93 93 93 93 93 93 93 93 93 93 93 93 109 109 109 109 109 109 109 109 109 109 109 109 109 109 0
2 80 63 63 63 63 63 63 63 63 63 63 63 63 63 63 63 63 63 63 63 63 58 58 58 58 58 58 58 58 58 58 58 58 58 58 58 58 58 61 61 61 61 61 61 61 61 61 61 61 61 61 61 0
3 65 82 82 82 82 82 82 82 82 82 82 82 82 82 82 82 82 82 82 82 82 84 84 84 84 84 84 84 84 84 84 84 84 84 84 84 84 84 97 97 97 97 97 97 97 97 97 97 97 97 97 97 0
4 91 75 75 75 75 75 75 75 75 75 75 75 75 75 75 75 75 75 75 75 75 75 75 75 75 75 75 75 75 75 75 75 75 75 75 75 75 75 84 84 84 84 84 84 84 84 84 84 84 84 84 84 0
5 74 71 71 71 71 71 71 71 71 71 71 71 71 71 71 71 71 71 71 71 71 69 69 69 69 69 69 69 69 69 69 69 69 69 69 69 69 69 75 75 75 75 75 75 75 75 75 75 75 75 75 75 0
6 88 70 70 70 70 70 70 70 70 70 70 70 70 70 70 70 70 70 70 70 70 68 68 68 68 68 68 68 68 68 68 68 68 68 68 68 68 68 74 74 74 74 74 74 74 74 74 74 74 74 74 74 0
7 92 97 97 97 97 97 97 97 97 97 97 97 97 97 97 97 97 97 97 97 97 104 104 104 104 104 104 104 104 104 104 104 104 104 104 104 104 104 125 125 125 125 125 125 125 125 125 125 125 125 125 125 0
8 71 57 57 57 57 57 57 57 57 57 57 57 57 57 57 57 57 57 57 57 57 51 51 51 51 51 51 51 51 51 51 51 51 51 51 51 51 51 51 51 51 51 51 51 51 51 51 51 51 51 51 51 0
9 75 67 67 67 67 67 67 67 67 67 67 67 67 67 67 67 67 67 67 67 67 64 64 64 64 64 64 64 64 64 64 64 64 64 64 64 64 64 69 69 69 69 69 69 69 69 69 69 69 69 69 69 0
10 90 62 62 62 62 62 62 62 62 62 62 62 62 62 62 62 62 62 62 62 62 57 57 57 57 57 57 57 57 57 57 57 57 57 57 57 57 57 60 60 60 60 60 60 60 60 60 60 60 60 60 60 0
11 88 91 91 91 91 91 91 91 91 91 91 91 91 91 91 91 91 91 91 91 91 96 96 96 96 96 96 96 96 96 96 96 96 96 96 96 96 96 113 113 113 113 113 113 113 113 113 113 113 113 113 113 0
12 92 58 58 58 58 58 58 58 58 58 58 58 58 58 58 58 58 58 58 58 58 52 52 52 52 52 52 52 52 52 52 52 52 52 52 52 52 52 52 52 52 52 52 52 52 52 52 52 52 52 52 52 0
13 69 62 62 62 62 62 62 62 62 62 62 62 62 62 62 62 62 62 62 62 62 57 57 57 57 57 57 57 57 57 57 57 57 57 57 57 57 57 60 60 60 60 60 60 60 60 60 60 60 60 60 60 0
14 67 81 81 81 81 81 81 81 81 81 81 81 81 81 81 81 81 81 81 81 81 83 83 83 83 83 83 83 83 83 83 83 83 83 83 83 83 83 95 95 95 95 95 95 95 95 95 95 95 95 95 95 0
15 88 103 103 103 103 103 103 103 103 103 103 103 103 103 103 103 103 103 103 103 103 112 112 112 112 112 112 112 112 112 112 112 112 112 112 112 112 112 135 135 135 135 135 135 135 135 135 135 135 135 135 135 0
16 64 68 68 68 68 68 68 68 68 68 68 68 68 68 68 68 68 68 68 68 68 66 66 66 66 66 66 66 66 66 66 66 66 66 66 66 66 66 71 71 71 71 71 71 71 71 71 71 71 71 71 71 0
17 79 99 99 99 99 99 99 99 99 99 99 99 99 99 99 99 99 99 99 99 99 106 106 106 106 106 106 106 106 106 106 106 106 106 106 106 106 106 127 127 127 127 127 127 127 127 127 127 127 127 127 127 0
18 85 73 73 73 73 73 73 73 73 73 73 73 73 73 73 73 73 73 73 73 73 71 71 71 71 71 71 71 71 71 71 71 71 71 71 71 71 71 79 79 79 79 79 79 79 79 79 79 79 79 79 79 0
19 56 67 67 67 67 67 67 67 67 67 67 67 67 67 67 67 67 67 67 67 67 64 64 64 64 64 64 64 64 64 64 64 64 64 64 64 64 64 69 69 69 69 69 69 69 69 69 69 69 69 69 69 0
20 69 71 71 71 71 71 71 71 71 71 71 71 71 71 71 71 71 71 71 71 71 69 69 69 69 69 69 69 69 69 69 69 69 69 69 69 69 69 77 77 77 77 77 77 77 77 77 77 77 77 77 77 0
21 100 64 64 64 64 64 64 64 64 64 64 64 64 64 64 64 64 64 64 64 64 59 59 59 59 59 59 59 59 59 59 59 59 59 59 59 59 59 62 62 62 62 62 62 62 62 62 62 62 62 62 62 0
22 78 80 80 80 80 80 80 80 80 80 80 80 80 80 80 80 80 80 80 80 80 81 81 81 81 81 81 81 81 81 81 81 81 81 81 81 81 81 92 92 92 92 92 92 92 92 92 92 92 92 92 92 0
23 65 58 58 58 58 58 58 58 58 58 58 58 58 58 58 58 58 58 58 58 58 52 52 52 52 52 52 52 52 52 52 52 52 52 52 52 52 52 52 52 52 52 52 52 52 52 52 52 52 52 52 52 0
24 76 101 101 101 101 101 101 101 101 101 101 101 101 101 101 101 101 101 101 101 101 109 109 109 109 109 109 109 109 109 109 109 109 109 109 109 109 109 131 131 131 131 131 131 131 131 131 131 131 131 131 131 0
