NAME GBP_INSTANCES/prob_3_B_0_1_4
COMMENT
BINTYPES 5
ITEMS 25
BINS_SECTIONS
0 60 60 34 0 34
1 80 80 26 0 26
2 100 100 21 0 21
3 120 120 17 0 17
4 150 150 14 0 14
CONTAINERS_SECTIONS
0 60 60 0 1 0
1 60 60 0 1 0
2 60 60 0 1 0
3 60 60 0 1 0
4 60 60 0 1 0
5 60 60 0 1 0
6 60 60 0 1 0
7 60 60 0 1 0
8 60 60 0 1 0
9 60 60 0 1 0
10 60 60 0 1 0
11 60 60 0 1 0
12 60 60 0 1 0
13 60 60 0 1 0
14 60 60 0 1 0
15 60 60 0 1 0
16 60 60 0 1 0
17 60 60 0 1 0
18 60 60 0 1 0
19 60 60 0 1 0
20 60 60 0 1 0
21 60 60 0 1 0
22 60 60 0 1 0
23 60 60 0 1 0
24 60 60 0 1 0
25 60 60 0 1 0
26 60 60 0 1 0
27 60 60 0 1 0
28 60 60 0 1 0
29 60 60 0 1 0
30 60 60 0 1 0
31 60 60 0 1 0
32 60 60 0 1 0
33 60 60 0 1 0
34 80 80 0 1 0
35 80 80 0 1 0
36 80 80 0 1 0
37 80 80 0 1 0
38 80 80 0 1 0
39 80 80 0 1 0
40 80 80 0 1 0
41 80 80 0 1 0
42 80 80 0 1 0
43 80 80 0 1 0
44 80 80 0 1 0
45 80 80 0 1 0
46 80 80 0 1 0
47 80 80 0 1 0
48 80 80 0 1 0
49 80 80 0 1 0
50 80 80 0 1 0
51 80 80 0 1 0
52 80 80 0 1 0
53 80 80 0 1 0
54 80 80 0 1 0
55 80 80 0 1 0
56 80 80 0 1 0
57 80 80 0 1 0
58 80 80 0 1 0
59 80 80 0 1 0
60 100 100 0 1 0
61 100 100 0 1 0
62 100 100 0 1 0
63 100 100 0 1 0
64 100 100 0 1 0
65 100 100 0 1 0
66 100 100 0 1 0
67 100 100 0 1 0
68 100 100 0 1 0
69 100 100 0 1 0
70 100 100 0 1 0
71 100 100 0 1 0
72 100 100 0 1 0
73 100 100 0 1 0
74 100 100 0 1 0
75 100 100 0 1 0
76 100 100 0 1 0
77 100 100 0 1 0
78 100 100 0 1 0
79 100 100 0 1 0
80 100 100 0 1 0
81 120 120 0 1 0
82 120 120 0 1 0
83 120 120 0 1 0
84 120 120 0 1 0
85 120 120 0 1 0
86 120 120 0 1 0
87 120 120 0 1 0
88 120 120 0 1 0
89 120 120 0 1 0
90 120 120 0 1 0
91 120 120 0 1 0
92 120 120 0 1 0
93 120 120 0 1 0
94 120 120 0 1 0
95 120 120 0 1 0
96 120 120 0 1 0
97 120 120 0 1 0
98 150 150 0 1 0
99 150 150 0 1 0
100 150 150 0 1 0
101 150 150 0 1 0
102 150 150 0 1 0
103 150 150 0 1 0
104 150 150 0 1 0
105 150 150 0 1 0
106 150 150 0 1 0
107 150 150 0 1 0
108 150 150 0 1 0
109 150 150 0 1 0
110 150 150 0 1 0
111 150 150 0 1 0
ITEMS_SECTIONS
0 66 53 53 53 53 53 53 53 53 53 53 53 53 53 53 53 53 53 53 53 53 53 53 53 53 53 53 53 53 53 53 53 53 53 53 45 45 45 45 45 45 45 45 45 45 45 45 45 45 45 45 45 45 45 45 45 45 45 45 45 45 43 43 43 43 43 43 43 43 43 43 43 43 43 43 43 43 43 43 43 43 43 41 41 41 41 41 41 41 41 41 41 41 41 41 41 41 41 41 41 41 41 41 41 41 41 41 41 41 41 41 41 41 0
1 72 89 89 89 89 89 89 89 89 89 89 89 89 89 89 89 89 89 89 89 89 89 89 89 89 89 89 89 89 89 89 89 89 89 89 88 88 88 88 88 88 88 88 88 88 88 88 88 88 88 88 88 88 88 88 88 88 88 88 88 88 92 92 92 92 92 92 92 92 92 92 92 92 92 92 92 92 92 92 92 92 92 97 97 97 97 97 97 97 97 97 97 97 97 97 97 97 97 97 107 107 107 107 107 107 107 107 107 107 107 107 107 107 0
2 95 63 63 63 63 63 63 63 63 63 63 63 63 63 63 63 63 63 63 63 63 63 63 63 63 63 63 63 63 63 63 63 63 63 63 57 57 57 57 57 57 57 57 57 57 57 57 57 57 57 57 57 57 57 57 57 57 57 57 57 57 56 56 56 56 56 56 56 56 56 56 56 56 56 56 56 56 56 56 56 56 56 57 57 57 57 57 57 57 57 57 57 57 57 57 57 57 57 57 59 59 59 59 59 59 59 59 59 59 59 59 59 59 0
3 99 72 72 72 72 72 72 72 72 72 72 72 72 72 72 72 72 72 72 72 72 72 72 72 72 72 72 72 72 72 72 72 72 72 72 68 68 68 68 68 68 68 68 68 68 68 68 68 68 68 68 68 68 68 68 68 68 68 68 68 68 69 69 69 69 69 69 69 69 69 69 69 69 69 69 69 69 69 69 69 69 69 71 71 71 71 71 71 71 71 71 71 71 71 71 71 71 71 71 76 76 76 76 76 76 76 76 76 76 76 76 76 76 0
4 97 95 95 95 95 95 95 95 95 95 95 95 95 95 95 95 95 95 95 95 95 95 95 95 95 95 95 95 95 95 95 95 95 95 95 95 95 95 95 95 95 95 95 95 95 95 95 95 95 95 95 95 95 95 95 95 95 95 95 95 95 101 101 101 101 101 101 101 101 101 101 101 101 101 101 101 101 101 101 101 101 101 107 107 107 107 107 107 107 107 107 107 107 107 107 107 107 107 107 119 119 119 119 119 119 119 119 119 119 119 119 119 119 0
5 56 56 56 56 56 56 56 56 56 56 56 56 56 56 56 56 56 56 56 56 56 56 56 56 56 56 56 56 56 56 56 56 56 56 56 49 49 49 49 49 49 49 49 49 49 49 49 49 49 49 49 49 49 49 49 49 49 49 49 49 49 47 47 47 47 47 47 47 47 47 47 47 47 47 47 47 47 47 47 47 47 47 46 46 46 46 46 46 46 46 46 46 46 46 46 46 46 46 46 46 46 46 46 46 46 46 46 46 46 46 46 46 46 0
6 80 64 64 64 64 64 64 64 64 64 64 64 64 64 64 64 64 64 64 64 64 64 64 64 64 64 64 64 64 64 64 64 64 64 64 59 59 59 59 59 59 59 59 59 59 59 59 59 59 59 59 59 59 59 59 59 59 59 59 59 59 58 58 58 58 58 58 58 58 58 58 58 58 58 58 58 58 58 58 58 58 58 59 59 59 59 59 59 59 59 59 59 59 59 59 59 59 59 59 62 62 62 62 62 62 62 62 62 62 62 62 62 62 0
7 69 78 78 78 78 78 78 78 78 78 78 78 78 78 78 78 78 78 78 78 78 78 78 78 78 78 78 78 78 78 78 78 78 78 78 75 75 75 75 75 75 75 75 75 75 75 75 75 75 75 75 75 75 75 75 75 75 75 75 75 75 78 78 78 78 78 78 78 78 78 78 78 78 78 78 78 78 78 78 78 78 78 81 81 81 81 81 81 81 81 81 81 81 81 81 81 81 81 81 88 88 88 88 88 88 88 88 88 88 88 88 88 88 0
8 100 87 87 87 87 87 87 87 87 87 87 87 87 87 87 87 87 87 87 87 87 87 87 87 87 87 87 87 87 87 87 87 87 87 87 86 86 86 86 86 86 86 86 86 86 86 86 86 86 86 86 86 86 86 86 86 86 86 86 86 86 90 90 90 90 90 90 90 90 90 90 90 90 90 90 90 90 90 90 90 90 90 95 95 95 95 95 95 95 95 95 95 95 95 95 95 95 95 95 105 105 105 105 105 105 105 105 105 105 105 105 105 105 0
9 100 81 81 81 81 81 81 81 81 81 81 81 81 81 81 81 81 81 81 81 81 81 81 81 81 81 81 81 81 81 81 81 81 81 81 79 79 79 79 79 79 79 79 79 79 79 79 79 79 79 79 79 79 79 79 79 79 79 79 79 79 82 82 82 82 82 82 82 82 82 82 82 82 82 82 82 82 82 82 82 82 82 85 85 85 85 85 85 85 85 85 85 85 85 85 85 85 85 85 93 93 93 93 93 93 93 93 93 93 93 93 93 93 0
10 54 71 71 71 71 71 71 71 71 71 71 71 71 71 71 71 71 71 71 71 71 71 71 71 71 71 71 71 71 71 71 71 71 71 71 66 66 66 66 66 66 66 66 66 66 66 66 66 66 66 66 66 66 66 66 66 66 66 66 66 66 67 67 67 67 67 67 67 67 67 67 67 67 67 67 67 67 67 67 67 67 67 69 69 69 69 69 69 69 69 69 69 69 69 69 69 69 69 69 73 73 73 73 73 73 73 73 73 73 73 73 73 73 0
11 54 65 65 65 65 65 65 65 65 65 65 65 65 65 65 65 65 65 65 65 65 65 65 65 65 65 65 65 65 65 65 65 65 65 65 60 60 60 60 60 60 60 60 60 60 60 60 60 60 60 60 60 60 60 60 60 60 60 60 60 60 59 59 59 59 59 59 59 59 59 59 59 59 59 59 59 59 59 59 59 59 59 60 60 60 60 60 60 60 60 60 60 60 60 60 60 60 60 60 63 63 63 63 63 63 63 63 63 63 63 63 63 63 0
12 72 84 84 84 84 84 84 84 84 84 84 84 84 84 84 84 84 84 84 84 84 84 84 84 84 84 84 84 84 84 84 84 84 84 84 82 82 82 82 82 82 82 82 82 82 82 82 82 82 82 82 82 82 82 82 82 82 82 82 82 82 85 85 85 85 85 85 85 85 85 85 85 85 85 85 85 85 85 85 85 85 85 90 90 90 90 90 90 90 90 90 90 90 90 90 90 90 90 90 98 98 98 98 98 98 98 98 98 98 98 98 98 98 0
13 59 81 81 81 81 81 81 81 81 81 81 81 81 81 81 81 81 81 81 81 81 81 81 81 81 81 81 81 81 81 81 81 81 81 81 79 79 79 79 79 79 79 79 79 79 79 79 79 79 79 79 79 79 79 79 79 79 79 79 79 79 82 82 82 82 82 82 82 82 82 82 82 82 82 82 82 82 82 82 82 82 82 85 85 85 85 85 85 85 85 85 85 85 85 85 85 85 85 85 93 93 93 93 93 93 93 93 93 93 93 93 93 93 0
14 83 83 83 83 83 83 83 83 83 83 83 83 83 83 83 83 83 83 83 83 83 83 83 83 83 83 83 83 83 83 83 83 83 83 83 81 81 81 81 81 81 81 81 81 81 81 81 81 81 81 81 81 81 81 81 81 81 81 81 81 81 84 84 84 84 84 84 84 84 84 84 84 84 84 84 84 84 84 84 84 84 84 89 89 89 89 89 89 89 89 89 89 89 89 89 89 89 89 89 97 97 97 97 97 97 97 97 97 97 97 97 97 97 0
15 95 75 75 75 75 75 75 75 75 75 75 75 75 75 75 75 75 75 75 75 75 75 75 75 75 75 75 75 75 75 75 75 75 75 75 71 71 71 71 71 71 71 71 71 71 71 71 71 71 71 71 71 71 71 71 71 71 71 71 71 71 73 73 73 73 73 73 73 73 73 73 73 73 73 73 73 73 73 73 73 73 73 75 75 75 75 75 75 75 75 75 75 75 75 75 75 75 75 75 81 81 81 81 81 81 81 81 81 81 81 81 81 81 0
16 69 66 66 66 66 66 66 66 66 66 66 66 66 66 66 66 66 66 66 66 66 66 66 66 66 66 66 66 66 66 66 66 66 66 66 60 60 60 60 60 60 60 60 60 60 60 60 60 60 60 60 60 60 60 60 60 60 60 60 60 60 60 60 60 60 60 60 60 60 60 60 60 60 60 60 60 60 60 60 60 60 60 61 61 61 61 61 61 61 61 61 61 61 61 61 61 61 61 61 64 64 64 64 64 64 64 64 64 64 64 64 64 64 0
17 100 68 68 68 68 68 68 68 68 68 68 68 68 68 68 68 68 68 68 68 68 68 68 68 68 68 68 68 68 68 68 68 68 68 68 63 63 63 63 63 63 63 63 63 63 63 63 63 63 63 63 63 63 63 63 63 63 63 63 63 63 63 63 63 63 63 63 63 63 63 63 63 63 63 63 63 63 63 63 63 63 63 64 64 64 64 64 64 64 64 64 64 64 64 64 64 64 64 64 68 68 68 68 68 68 68 68 68 68 68 68 68 68 0
18 100 56 56 56 56 56 56 56 56 56 56 56 56 56 56 56 56 56 56 56 56 56 56 56 56 56 56 56 56 56 56 56 56 56 56 49 49 49 49 49 49 49 49 49 49 49 49 49 49 49 49 49 49 49 49 49 49 49 49 49 49 47 47 47 47 47 47 47 47 47 47 47 47 47 47 47 47 47 47 47 47 47 46 46 46 46 46 46 46 46 46 46 46 46 46 46 46 46 46 46 46 46 46 46 46 46 46 46 46 46 46 46 46 0
19 86 79 79 79 79 79 79 79 79 79 79 79 79 79 79 79 79 79 79 79 79 79 79 79 79 79 79 79 79 79 79 79 79 79 79 76 76 76 76 76 76 76 76 76 76 76 76 76 76 76 76 76 76 76 76 76 76 76 76 76 76 79 79 79 79 79 79 79 79 79 79 79 79 79 79 79 79 79 79 79 79 79 82 82 82 82 82 82 82 82 82 82 82 82 82 82 82 82 82 89 89 89 89 89 89 89 89 89 89 89 89 89 89 0
20 92 96 96 96 96 96 96 96 96 96 96 96 96 96 96 96 96 96 96 96 96 96 96 96 96 96 96 96 96 96 96 96 96 96 96 97 97 97 97 97 97 97 97 97 97 97 97 97 97 97 97 97 97 97 97 97 97 97 97 97 97 103 103 103 103 103 103 103 103 103 103 103 103 103 103 103 103 103 103 103 103 103 109 109 109 109 109 109 109 109 109 109 109 109 109 109 109 109 109 121 121 121 121 121 121 121 121 121 121 121 121 121 121 0
21 96 52 52 52 52 52 52 52 52 52 52 52 52 52 52 52 52 52 52 52 52 52 52 52 52 52 52 52 52 52 52 52 52 52 52 44 44 44 44 44 44 44 44 44 44 44 44 44 44 44 44 44 44 44 44 44 44 44 44 44 44 41 41 41 41 41 41 41 41 41 41 41 41 41 41 41 41 41 41 41 41 41 39 39 39 39 39 39 39 39 39 39 39 39 39 39 39 39 39 38 38 38 38 38 38 38 38 38 38 38 38 38 38 0
22 74 80 80 80 80 80 80 80 80 80 80 80 80 80 80 80 80 80 80 80 80 80 80 80 80 80 80 80 80 80 80 80 80 80 80 77 77 77 77 77 77 77 77 77 77 77 77 77 77 77 77 77 77 77 77 77 77 77 77 77 77 80 80 80 80 80 80 80 80 80 80 80 80 80 80 80 80 80 80 80 80 80 83 83 83 83 83 83 83 83 83 83 83 83 83 83 83 83 83 90 90 90 90 90 90 90 90 90 90 90 90 90 90 0
23 81 92 92 92 92 92 92 92 92 92 92 92 92 92 92 92 92 92 92 92 92 92 92 92 92 92 92 92 92 92 92 92 92 92 92 91 91 91 91 91 91 91 91 91 91 91 91 91 91 91 91 91 91 91 91 91 91 91 91 91 91 96 96 96 96 96 96 96 96 96 96 96 96 96 96 96 96 96 96 96 96 96 102 102 102 102 102 102 102 102 102 102 102 102 102 102 102 102 102 112 112 112 112 112 112 112 112 112 112 112 112 112 112 0
24 59 61 61 61 61 61 61 61 61 61 61 61 61 61 61 61 61 61 61 61 61 61 61 61 61 61 61 61 61 61 61 61 61 61 61 55 55 55 55 55 55 55 55 55 55 55 55 55 55 55 55 55 55 55 55 55 55 55 55 55 55 54 54 54 54 54 54 54 54 54 54 54 54 54 54 54 54 54 54 54 54 54 54 54 54 54 54 54 54 54 54 54 54 54 54 54 54 54 54 56 56 56 56 56 56 56 56 56 56 56 56 56 56 0
